<?xml version="1.0" encoding="utf-8" standalone="no"?>
<!DOCTYPE svg PUBLIC "-//W3C//DTD SVG 1.1//EN"
  "http://www.w3.org/Graphics/SVG/1.1/DTD/svg11.dtd">
<!-- Created with matplotlib (http://matplotlib.org/) -->
<svg height="288pt" version="1.1" viewBox="0 0 1008 288" width="1008pt" xmlns="http://www.w3.org/2000/svg" xmlns:xlink="http://www.w3.org/1999/xlink">
 <defs>
  <style type="text/css">
*{stroke-linecap:butt;stroke-linejoin:round;}
  </style>
 </defs>
 <g id="figure_1">
  <g id="patch_1">
   <path d="M 0 288 
L 1008 288 
L 1008 0 
L 0 0 
z
" style="fill:#ffffff;"/>
  </g>
  <g id="axes_1">
   <g id="patch_2">
    <path d="M 60.503952 238.84 
L 323.4975 238.84 
L 323.4975 13.32 
L 60.503952 13.32 
z
" style="fill:#ffffff;"/>
   </g>
   <g id="matplotlib.axis_1">
    <g id="xtick_1">
     <g id="line2d_1">
      <defs>
       <path d="M 0 0 
L 0 3.5 
" id="medceae4d1b" style="stroke:#000000;stroke-width:0.8;"/>
      </defs>
      <g>
       <use style="stroke:#000000;stroke-width:0.8;" x="60.503952" xlink:href="#medceae4d1b" y="238.84"/>
      </g>
     </g>
     <g id="text_1">
      <!-- 0 -->
      <defs>
       <path d="M 31.78125 66.40625 
Q 24.171875 66.40625 20.328125 58.90625 
Q 16.5 51.421875 16.5 36.375 
Q 16.5 21.390625 20.328125 13.890625 
Q 24.171875 6.390625 31.78125 6.390625 
Q 39.453125 6.390625 43.28125 13.890625 
Q 47.125 21.390625 47.125 36.375 
Q 47.125 51.421875 43.28125 58.90625 
Q 39.453125 66.40625 31.78125 66.40625 
z
M 31.78125 74.21875 
Q 44.046875 74.21875 50.515625 64.515625 
Q 56.984375 54.828125 56.984375 36.375 
Q 56.984375 17.96875 50.515625 8.265625 
Q 44.046875 -1.421875 31.78125 -1.421875 
Q 19.53125 -1.421875 13.0625 8.265625 
Q 6.59375 17.96875 6.59375 36.375 
Q 6.59375 54.828125 13.0625 64.515625 
Q 19.53125 74.21875 31.78125 74.21875 
z
" id="DejaVuSans-30"/>
      </defs>
      <g transform="translate(56.050202 256.477812)scale(0.14 -0.14)">
       <use xlink:href="#DejaVuSans-30"/>
      </g>
     </g>
    </g>
    <g id="xtick_2">
     <g id="line2d_2">
      <g>
       <use style="stroke:#000000;stroke-width:0.8;" x="113.102661" xlink:href="#medceae4d1b" y="238.84"/>
      </g>
     </g>
     <g id="text_2">
      <!-- 2 -->
      <defs>
       <path d="M 19.1875 8.296875 
L 53.609375 8.296875 
L 53.609375 0 
L 7.328125 0 
L 7.328125 8.296875 
Q 12.9375 14.109375 22.625 23.890625 
Q 32.328125 33.6875 34.8125 36.53125 
Q 39.546875 41.84375 41.421875 45.53125 
Q 43.3125 49.21875 43.3125 52.78125 
Q 43.3125 58.59375 39.234375 62.25 
Q 35.15625 65.921875 28.609375 65.921875 
Q 23.96875 65.921875 18.8125 64.3125 
Q 13.671875 62.703125 7.8125 59.421875 
L 7.8125 69.390625 
Q 13.765625 71.78125 18.9375 73 
Q 24.125 74.21875 28.421875 74.21875 
Q 39.75 74.21875 46.484375 68.546875 
Q 53.21875 62.890625 53.21875 53.421875 
Q 53.21875 48.921875 51.53125 44.890625 
Q 49.859375 40.875 45.40625 35.40625 
Q 44.1875 33.984375 37.640625 27.21875 
Q 31.109375 20.453125 19.1875 8.296875 
z
" id="DejaVuSans-32"/>
      </defs>
      <g transform="translate(108.648911 256.477812)scale(0.14 -0.14)">
       <use xlink:href="#DejaVuSans-32"/>
      </g>
     </g>
    </g>
    <g id="xtick_3">
     <g id="line2d_3">
      <g>
       <use style="stroke:#000000;stroke-width:0.8;" x="165.701371" xlink:href="#medceae4d1b" y="238.84"/>
      </g>
     </g>
     <g id="text_3">
      <!-- 4 -->
      <defs>
       <path d="M 37.796875 64.3125 
L 12.890625 25.390625 
L 37.796875 25.390625 
z
M 35.203125 72.90625 
L 47.609375 72.90625 
L 47.609375 25.390625 
L 58.015625 25.390625 
L 58.015625 17.1875 
L 47.609375 17.1875 
L 47.609375 0 
L 37.796875 0 
L 37.796875 17.1875 
L 4.890625 17.1875 
L 4.890625 26.703125 
z
" id="DejaVuSans-34"/>
      </defs>
      <g transform="translate(161.247621 256.477812)scale(0.14 -0.14)">
       <use xlink:href="#DejaVuSans-34"/>
      </g>
     </g>
    </g>
    <g id="xtick_4">
     <g id="line2d_4">
      <g>
       <use style="stroke:#000000;stroke-width:0.8;" x="218.300081" xlink:href="#medceae4d1b" y="238.84"/>
      </g>
     </g>
     <g id="text_4">
      <!-- 6 -->
      <defs>
       <path d="M 33.015625 40.375 
Q 26.375 40.375 22.484375 35.828125 
Q 18.609375 31.296875 18.609375 23.390625 
Q 18.609375 15.53125 22.484375 10.953125 
Q 26.375 6.390625 33.015625 6.390625 
Q 39.65625 6.390625 43.53125 10.953125 
Q 47.40625 15.53125 47.40625 23.390625 
Q 47.40625 31.296875 43.53125 35.828125 
Q 39.65625 40.375 33.015625 40.375 
z
M 52.59375 71.296875 
L 52.59375 62.3125 
Q 48.875 64.0625 45.09375 64.984375 
Q 41.3125 65.921875 37.59375 65.921875 
Q 27.828125 65.921875 22.671875 59.328125 
Q 17.53125 52.734375 16.796875 39.40625 
Q 19.671875 43.65625 24.015625 45.921875 
Q 28.375 48.1875 33.59375 48.1875 
Q 44.578125 48.1875 50.953125 41.515625 
Q 57.328125 34.859375 57.328125 23.390625 
Q 57.328125 12.15625 50.6875 5.359375 
Q 44.046875 -1.421875 33.015625 -1.421875 
Q 20.359375 -1.421875 13.671875 8.265625 
Q 6.984375 17.96875 6.984375 36.375 
Q 6.984375 53.65625 15.1875 63.9375 
Q 23.390625 74.21875 37.203125 74.21875 
Q 40.921875 74.21875 44.703125 73.484375 
Q 48.484375 72.75 52.59375 71.296875 
z
" id="DejaVuSans-36"/>
      </defs>
      <g transform="translate(213.846331 256.477812)scale(0.14 -0.14)">
       <use xlink:href="#DejaVuSans-36"/>
      </g>
     </g>
    </g>
    <g id="xtick_5">
     <g id="line2d_5">
      <g>
       <use style="stroke:#000000;stroke-width:0.8;" x="270.89879" xlink:href="#medceae4d1b" y="238.84"/>
      </g>
     </g>
     <g id="text_5">
      <!-- 8 -->
      <defs>
       <path d="M 31.78125 34.625 
Q 24.75 34.625 20.71875 30.859375 
Q 16.703125 27.09375 16.703125 20.515625 
Q 16.703125 13.921875 20.71875 10.15625 
Q 24.75 6.390625 31.78125 6.390625 
Q 38.8125 6.390625 42.859375 10.171875 
Q 46.921875 13.96875 46.921875 20.515625 
Q 46.921875 27.09375 42.890625 30.859375 
Q 38.875 34.625 31.78125 34.625 
z
M 21.921875 38.8125 
Q 15.578125 40.375 12.03125 44.71875 
Q 8.5 49.078125 8.5 55.328125 
Q 8.5 64.0625 14.71875 69.140625 
Q 20.953125 74.21875 31.78125 74.21875 
Q 42.671875 74.21875 48.875 69.140625 
Q 55.078125 64.0625 55.078125 55.328125 
Q 55.078125 49.078125 51.53125 44.71875 
Q 48 40.375 41.703125 38.8125 
Q 48.828125 37.15625 52.796875 32.3125 
Q 56.78125 27.484375 56.78125 20.515625 
Q 56.78125 9.90625 50.3125 4.234375 
Q 43.84375 -1.421875 31.78125 -1.421875 
Q 19.734375 -1.421875 13.25 4.234375 
Q 6.78125 9.90625 6.78125 20.515625 
Q 6.78125 27.484375 10.78125 32.3125 
Q 14.796875 37.15625 21.921875 38.8125 
z
M 18.3125 54.390625 
Q 18.3125 48.734375 21.84375 45.5625 
Q 25.390625 42.390625 31.78125 42.390625 
Q 38.140625 42.390625 41.71875 45.5625 
Q 45.3125 48.734375 45.3125 54.390625 
Q 45.3125 60.0625 41.71875 63.234375 
Q 38.140625 66.40625 31.78125 66.40625 
Q 25.390625 66.40625 21.84375 63.234375 
Q 18.3125 60.0625 18.3125 54.390625 
z
" id="DejaVuSans-38"/>
      </defs>
      <g transform="translate(266.44504 256.477812)scale(0.14 -0.14)">
       <use xlink:href="#DejaVuSans-38"/>
      </g>
     </g>
    </g>
    <g id="xtick_6">
     <g id="line2d_6">
      <g>
       <use style="stroke:#000000;stroke-width:0.8;" x="323.4975" xlink:href="#medceae4d1b" y="238.84"/>
      </g>
     </g>
     <g id="text_6">
      <!-- 10 -->
      <defs>
       <path d="M 12.40625 8.296875 
L 28.515625 8.296875 
L 28.515625 63.921875 
L 10.984375 60.40625 
L 10.984375 69.390625 
L 28.421875 72.90625 
L 38.28125 72.90625 
L 38.28125 8.296875 
L 54.390625 8.296875 
L 54.390625 0 
L 12.40625 0 
z
" id="DejaVuSans-31"/>
      </defs>
      <g transform="translate(314.59 256.477812)scale(0.14 -0.14)">
       <use xlink:href="#DejaVuSans-31"/>
       <use x="63.623047" xlink:href="#DejaVuSans-30"/>
      </g>
     </g>
    </g>
    <g id="text_7">
     <!-- Cutoff (A) -->
     <defs>
      <path d="M 64.40625 67.28125 
L 64.40625 56.890625 
Q 59.421875 61.53125 53.78125 63.8125 
Q 48.140625 66.109375 41.796875 66.109375 
Q 29.296875 66.109375 22.65625 58.46875 
Q 16.015625 50.828125 16.015625 36.375 
Q 16.015625 21.96875 22.65625 14.328125 
Q 29.296875 6.6875 41.796875 6.6875 
Q 48.140625 6.6875 53.78125 8.984375 
Q 59.421875 11.28125 64.40625 15.921875 
L 64.40625 5.609375 
Q 59.234375 2.09375 53.4375 0.328125 
Q 47.65625 -1.421875 41.21875 -1.421875 
Q 24.65625 -1.421875 15.125 8.703125 
Q 5.609375 18.84375 5.609375 36.375 
Q 5.609375 53.953125 15.125 64.078125 
Q 24.65625 74.21875 41.21875 74.21875 
Q 47.75 74.21875 53.53125 72.484375 
Q 59.328125 70.75 64.40625 67.28125 
z
" id="DejaVuSans-43"/>
      <path d="M 8.5 21.578125 
L 8.5 54.6875 
L 17.484375 54.6875 
L 17.484375 21.921875 
Q 17.484375 14.15625 20.5 10.265625 
Q 23.53125 6.390625 29.59375 6.390625 
Q 36.859375 6.390625 41.078125 11.03125 
Q 45.3125 15.671875 45.3125 23.6875 
L 45.3125 54.6875 
L 54.296875 54.6875 
L 54.296875 0 
L 45.3125 0 
L 45.3125 8.40625 
Q 42.046875 3.421875 37.71875 1 
Q 33.40625 -1.421875 27.6875 -1.421875 
Q 18.265625 -1.421875 13.375 4.4375 
Q 8.5 10.296875 8.5 21.578125 
z
M 31.109375 56 
z
" id="DejaVuSans-75"/>
      <path d="M 18.3125 70.21875 
L 18.3125 54.6875 
L 36.8125 54.6875 
L 36.8125 47.703125 
L 18.3125 47.703125 
L 18.3125 18.015625 
Q 18.3125 11.328125 20.140625 9.421875 
Q 21.96875 7.515625 27.59375 7.515625 
L 36.8125 7.515625 
L 36.8125 0 
L 27.59375 0 
Q 17.1875 0 13.234375 3.875 
Q 9.28125 7.765625 9.28125 18.015625 
L 9.28125 47.703125 
L 2.6875 47.703125 
L 2.6875 54.6875 
L 9.28125 54.6875 
L 9.28125 70.21875 
z
" id="DejaVuSans-74"/>
      <path d="M 30.609375 48.390625 
Q 23.390625 48.390625 19.1875 42.75 
Q 14.984375 37.109375 14.984375 27.296875 
Q 14.984375 17.484375 19.15625 11.84375 
Q 23.34375 6.203125 30.609375 6.203125 
Q 37.796875 6.203125 41.984375 11.859375 
Q 46.1875 17.53125 46.1875 27.296875 
Q 46.1875 37.015625 41.984375 42.703125 
Q 37.796875 48.390625 30.609375 48.390625 
z
M 30.609375 56 
Q 42.328125 56 49.015625 48.375 
Q 55.71875 40.765625 55.71875 27.296875 
Q 55.71875 13.875 49.015625 6.21875 
Q 42.328125 -1.421875 30.609375 -1.421875 
Q 18.84375 -1.421875 12.171875 6.21875 
Q 5.515625 13.875 5.515625 27.296875 
Q 5.515625 40.765625 12.171875 48.375 
Q 18.84375 56 30.609375 56 
z
" id="DejaVuSans-6f"/>
      <path d="M 37.109375 75.984375 
L 37.109375 68.5 
L 28.515625 68.5 
Q 23.6875 68.5 21.796875 66.546875 
Q 19.921875 64.59375 19.921875 59.515625 
L 19.921875 54.6875 
L 34.71875 54.6875 
L 34.71875 47.703125 
L 19.921875 47.703125 
L 19.921875 0 
L 10.890625 0 
L 10.890625 47.703125 
L 2.296875 47.703125 
L 2.296875 54.6875 
L 10.890625 54.6875 
L 10.890625 58.5 
Q 10.890625 67.625 15.140625 71.796875 
Q 19.390625 75.984375 28.609375 75.984375 
z
" id="DejaVuSans-66"/>
      <path id="DejaVuSans-20"/>
      <path d="M 31 75.875 
Q 24.46875 64.65625 21.28125 53.65625 
Q 18.109375 42.671875 18.109375 31.390625 
Q 18.109375 20.125 21.3125 9.0625 
Q 24.515625 -2 31 -13.1875 
L 23.1875 -13.1875 
Q 15.875 -1.703125 12.234375 9.375 
Q 8.59375 20.453125 8.59375 31.390625 
Q 8.59375 42.28125 12.203125 53.3125 
Q 15.828125 64.359375 23.1875 75.875 
z
" id="DejaVuSans-28"/>
      <path d="M 34.1875 63.1875 
L 20.796875 26.90625 
L 47.609375 26.90625 
z
M 28.609375 72.90625 
L 39.796875 72.90625 
L 67.578125 0 
L 57.328125 0 
L 50.6875 18.703125 
L 17.828125 18.703125 
L 11.1875 0 
L 0.78125 0 
z
" id="DejaVuSans-41"/>
      <path d="M 8.015625 75.875 
L 15.828125 75.875 
Q 23.140625 64.359375 26.78125 53.3125 
Q 30.421875 42.28125 30.421875 31.390625 
Q 30.421875 20.453125 26.78125 9.375 
Q 23.140625 -1.703125 15.828125 -13.1875 
L 8.015625 -13.1875 
Q 14.5 -2 17.703125 9.0625 
Q 20.90625 20.125 20.90625 31.390625 
Q 20.90625 42.671875 17.703125 53.65625 
Q 14.5 64.65625 8.015625 75.875 
z
" id="DejaVuSans-29"/>
     </defs>
     <g transform="translate(158.245413 274.027187)scale(0.14 -0.14)">
      <use xlink:href="#DejaVuSans-43"/>
      <use x="69.824219" xlink:href="#DejaVuSans-75"/>
      <use x="133.203125" xlink:href="#DejaVuSans-74"/>
      <use x="172.412109" xlink:href="#DejaVuSans-6f"/>
      <use x="233.59375" xlink:href="#DejaVuSans-66"/>
      <use x="268.798828" xlink:href="#DejaVuSans-66"/>
      <use x="304.003906" xlink:href="#DejaVuSans-20"/>
      <use x="335.791016" xlink:href="#DejaVuSans-28"/>
      <use x="374.804688" xlink:href="#DejaVuSans-41"/>
      <use x="443.212891" xlink:href="#DejaVuSans-29"/>
     </g>
    </g>
   </g>
   <g id="matplotlib.axis_2">
    <g id="ytick_1">
     <g id="line2d_7">
      <defs>
       <path d="M 0 0 
L -3.5 0 
" id="mc82f4919a3" style="stroke:#000000;stroke-width:0.8;"/>
      </defs>
      <g>
       <use style="stroke:#000000;stroke-width:0.8;" x="60.503952" xlink:href="#mc82f4919a3" y="234.659853"/>
      </g>
     </g>
     <g id="text_8">
      <!-- $\mathdefault{10^{0}}$ -->
      <g transform="translate(28.863952 239.978759)scale(0.14 -0.14)">
       <use transform="translate(0 0.765625)" xlink:href="#DejaVuSans-31"/>
       <use transform="translate(63.623047 0.765625)" xlink:href="#DejaVuSans-30"/>
       <use transform="translate(128.203125 39.046875)scale(0.7)" xlink:href="#DejaVuSans-30"/>
      </g>
     </g>
    </g>
    <g id="ytick_2">
     <g id="line2d_8">
      <g>
       <use style="stroke:#000000;stroke-width:0.8;" x="60.503952" xlink:href="#mc82f4919a3" y="143.305477"/>
      </g>
     </g>
     <g id="text_9">
      <!-- $\mathdefault{10^{1}}$ -->
      <g transform="translate(28.863952 148.624384)scale(0.14 -0.14)">
       <use transform="translate(0 0.684375)" xlink:href="#DejaVuSans-31"/>
       <use transform="translate(63.623047 0.684375)" xlink:href="#DejaVuSans-30"/>
       <use transform="translate(128.203125 38.965625)scale(0.7)" xlink:href="#DejaVuSans-31"/>
      </g>
     </g>
    </g>
    <g id="ytick_3">
     <g id="line2d_9">
      <g>
       <use style="stroke:#000000;stroke-width:0.8;" x="60.503952" xlink:href="#mc82f4919a3" y="51.951102"/>
      </g>
     </g>
     <g id="text_10">
      <!-- $\mathdefault{10^{2}}$ -->
      <g transform="translate(28.863952 57.270008)scale(0.14 -0.14)">
       <use transform="translate(0 0.765625)" xlink:href="#DejaVuSans-31"/>
       <use transform="translate(63.623047 0.765625)" xlink:href="#DejaVuSans-30"/>
       <use transform="translate(128.203125 39.046875)scale(0.7)" xlink:href="#DejaVuSans-32"/>
      </g>
     </g>
    </g>
    <g id="ytick_4">
     <g id="line2d_10">
      <defs>
       <path d="M 0 0 
L -2 0 
" id="m53ee959170" style="stroke:#000000;stroke-width:0.6;"/>
      </defs>
      <g>
       <use style="stroke:#000000;stroke-width:0.6;" x="60.503952" xlink:href="#m53ee959170" y="238.84"/>
      </g>
     </g>
    </g>
    <g id="ytick_5">
     <g id="line2d_11">
      <g>
       <use style="stroke:#000000;stroke-width:0.6;" x="60.503952" xlink:href="#m53ee959170" y="207.159446"/>
      </g>
     </g>
    </g>
    <g id="ytick_6">
     <g id="line2d_12">
      <g>
       <use style="stroke:#000000;stroke-width:0.6;" x="60.503952" xlink:href="#m53ee959170" y="191.072739"/>
      </g>
     </g>
    </g>
    <g id="ytick_7">
     <g id="line2d_13">
      <g>
       <use style="stroke:#000000;stroke-width:0.6;" x="60.503952" xlink:href="#m53ee959170" y="179.659038"/>
      </g>
     </g>
    </g>
    <g id="ytick_8">
     <g id="line2d_14">
      <g>
       <use style="stroke:#000000;stroke-width:0.6;" x="60.503952" xlink:href="#m53ee959170" y="170.805885"/>
      </g>
     </g>
    </g>
    <g id="ytick_9">
     <g id="line2d_15">
      <g>
       <use style="stroke:#000000;stroke-width:0.6;" x="60.503952" xlink:href="#m53ee959170" y="163.572331"/>
      </g>
     </g>
    </g>
    <g id="ytick_10">
     <g id="line2d_16">
      <g>
       <use style="stroke:#000000;stroke-width:0.6;" x="60.503952" xlink:href="#m53ee959170" y="157.456449"/>
      </g>
     </g>
    </g>
    <g id="ytick_11">
     <g id="line2d_17">
      <g>
       <use style="stroke:#000000;stroke-width:0.6;" x="60.503952" xlink:href="#m53ee959170" y="152.158631"/>
      </g>
     </g>
    </g>
    <g id="ytick_12">
     <g id="line2d_18">
      <g>
       <use style="stroke:#000000;stroke-width:0.6;" x="60.503952" xlink:href="#m53ee959170" y="147.485624"/>
      </g>
     </g>
    </g>
    <g id="ytick_13">
     <g id="line2d_19">
      <g>
       <use style="stroke:#000000;stroke-width:0.6;" x="60.503952" xlink:href="#m53ee959170" y="115.80507"/>
      </g>
     </g>
    </g>
    <g id="ytick_14">
     <g id="line2d_20">
      <g>
       <use style="stroke:#000000;stroke-width:0.6;" x="60.503952" xlink:href="#m53ee959170" y="99.718363"/>
      </g>
     </g>
    </g>
    <g id="ytick_15">
     <g id="line2d_21">
      <g>
       <use style="stroke:#000000;stroke-width:0.6;" x="60.503952" xlink:href="#m53ee959170" y="88.304663"/>
      </g>
     </g>
    </g>
    <g id="ytick_16">
     <g id="line2d_22">
      <g>
       <use style="stroke:#000000;stroke-width:0.6;" x="60.503952" xlink:href="#m53ee959170" y="79.451509"/>
      </g>
     </g>
    </g>
    <g id="ytick_17">
     <g id="line2d_23">
      <g>
       <use style="stroke:#000000;stroke-width:0.6;" x="60.503952" xlink:href="#m53ee959170" y="72.217956"/>
      </g>
     </g>
    </g>
    <g id="ytick_18">
     <g id="line2d_24">
      <g>
       <use style="stroke:#000000;stroke-width:0.6;" x="60.503952" xlink:href="#m53ee959170" y="66.102073"/>
      </g>
     </g>
    </g>
    <g id="ytick_19">
     <g id="line2d_25">
      <g>
       <use style="stroke:#000000;stroke-width:0.6;" x="60.503952" xlink:href="#m53ee959170" y="60.804255"/>
      </g>
     </g>
    </g>
    <g id="ytick_20">
     <g id="line2d_26">
      <g>
       <use style="stroke:#000000;stroke-width:0.6;" x="60.503952" xlink:href="#m53ee959170" y="56.131249"/>
      </g>
     </g>
    </g>
    <g id="ytick_21">
     <g id="line2d_27">
      <g>
       <use style="stroke:#000000;stroke-width:0.6;" x="60.503952" xlink:href="#m53ee959170" y="24.450694"/>
      </g>
     </g>
    </g>
    <g id="text_11">
     <!-- Number of orbits -->
     <defs>
      <path d="M 9.8125 72.90625 
L 23.09375 72.90625 
L 55.421875 11.921875 
L 55.421875 72.90625 
L 64.984375 72.90625 
L 64.984375 0 
L 51.703125 0 
L 19.390625 60.984375 
L 19.390625 0 
L 9.8125 0 
z
" id="DejaVuSans-4e"/>
      <path d="M 52 44.1875 
Q 55.375 50.25 60.0625 53.125 
Q 64.75 56 71.09375 56 
Q 79.640625 56 84.28125 50.015625 
Q 88.921875 44.046875 88.921875 33.015625 
L 88.921875 0 
L 79.890625 0 
L 79.890625 32.71875 
Q 79.890625 40.578125 77.09375 44.375 
Q 74.3125 48.1875 68.609375 48.1875 
Q 61.625 48.1875 57.5625 43.546875 
Q 53.515625 38.921875 53.515625 30.90625 
L 53.515625 0 
L 44.484375 0 
L 44.484375 32.71875 
Q 44.484375 40.625 41.703125 44.40625 
Q 38.921875 48.1875 33.109375 48.1875 
Q 26.21875 48.1875 22.15625 43.53125 
Q 18.109375 38.875 18.109375 30.90625 
L 18.109375 0 
L 9.078125 0 
L 9.078125 54.6875 
L 18.109375 54.6875 
L 18.109375 46.1875 
Q 21.1875 51.21875 25.484375 53.609375 
Q 29.78125 56 35.6875 56 
Q 41.65625 56 45.828125 52.96875 
Q 50 49.953125 52 44.1875 
z
" id="DejaVuSans-6d"/>
      <path d="M 48.6875 27.296875 
Q 48.6875 37.203125 44.609375 42.84375 
Q 40.53125 48.484375 33.40625 48.484375 
Q 26.265625 48.484375 22.1875 42.84375 
Q 18.109375 37.203125 18.109375 27.296875 
Q 18.109375 17.390625 22.1875 11.75 
Q 26.265625 6.109375 33.40625 6.109375 
Q 40.53125 6.109375 44.609375 11.75 
Q 48.6875 17.390625 48.6875 27.296875 
z
M 18.109375 46.390625 
Q 20.953125 51.265625 25.265625 53.625 
Q 29.59375 56 35.59375 56 
Q 45.5625 56 51.78125 48.09375 
Q 58.015625 40.1875 58.015625 27.296875 
Q 58.015625 14.40625 51.78125 6.484375 
Q 45.5625 -1.421875 35.59375 -1.421875 
Q 29.59375 -1.421875 25.265625 0.953125 
Q 20.953125 3.328125 18.109375 8.203125 
L 18.109375 0 
L 9.078125 0 
L 9.078125 75.984375 
L 18.109375 75.984375 
z
" id="DejaVuSans-62"/>
      <path d="M 56.203125 29.59375 
L 56.203125 25.203125 
L 14.890625 25.203125 
Q 15.484375 15.921875 20.484375 11.0625 
Q 25.484375 6.203125 34.421875 6.203125 
Q 39.59375 6.203125 44.453125 7.46875 
Q 49.3125 8.734375 54.109375 11.28125 
L 54.109375 2.78125 
Q 49.265625 0.734375 44.1875 -0.34375 
Q 39.109375 -1.421875 33.890625 -1.421875 
Q 20.796875 -1.421875 13.15625 6.1875 
Q 5.515625 13.8125 5.515625 26.8125 
Q 5.515625 40.234375 12.765625 48.109375 
Q 20.015625 56 32.328125 56 
Q 43.359375 56 49.78125 48.890625 
Q 56.203125 41.796875 56.203125 29.59375 
z
M 47.21875 32.234375 
Q 47.125 39.59375 43.09375 43.984375 
Q 39.0625 48.390625 32.421875 48.390625 
Q 24.90625 48.390625 20.390625 44.140625 
Q 15.875 39.890625 15.1875 32.171875 
z
" id="DejaVuSans-65"/>
      <path d="M 41.109375 46.296875 
Q 39.59375 47.171875 37.8125 47.578125 
Q 36.03125 48 33.890625 48 
Q 26.265625 48 22.1875 43.046875 
Q 18.109375 38.09375 18.109375 28.8125 
L 18.109375 0 
L 9.078125 0 
L 9.078125 54.6875 
L 18.109375 54.6875 
L 18.109375 46.1875 
Q 20.953125 51.171875 25.484375 53.578125 
Q 30.03125 56 36.53125 56 
Q 37.453125 56 38.578125 55.875 
Q 39.703125 55.765625 41.0625 55.515625 
z
" id="DejaVuSans-72"/>
      <path d="M 9.421875 54.6875 
L 18.40625 54.6875 
L 18.40625 0 
L 9.421875 0 
z
M 9.421875 75.984375 
L 18.40625 75.984375 
L 18.40625 64.59375 
L 9.421875 64.59375 
z
" id="DejaVuSans-69"/>
      <path d="M 44.28125 53.078125 
L 44.28125 44.578125 
Q 40.484375 46.53125 36.375 47.5 
Q 32.28125 48.484375 27.875 48.484375 
Q 21.1875 48.484375 17.84375 46.4375 
Q 14.5 44.390625 14.5 40.28125 
Q 14.5 37.15625 16.890625 35.375 
Q 19.28125 33.59375 26.515625 31.984375 
L 29.59375 31.296875 
Q 39.15625 29.25 43.1875 25.515625 
Q 47.21875 21.78125 47.21875 15.09375 
Q 47.21875 7.46875 41.1875 3.015625 
Q 35.15625 -1.421875 24.609375 -1.421875 
Q 20.21875 -1.421875 15.453125 -0.5625 
Q 10.6875 0.296875 5.421875 2 
L 5.421875 11.28125 
Q 10.40625 8.6875 15.234375 7.390625 
Q 20.0625 6.109375 24.8125 6.109375 
Q 31.15625 6.109375 34.5625 8.28125 
Q 37.984375 10.453125 37.984375 14.40625 
Q 37.984375 18.0625 35.515625 20.015625 
Q 33.0625 21.96875 24.703125 23.78125 
L 21.578125 24.515625 
Q 13.234375 26.265625 9.515625 29.90625 
Q 5.8125 33.546875 5.8125 39.890625 
Q 5.8125 47.609375 11.28125 51.796875 
Q 16.75 56 26.8125 56 
Q 31.78125 56 36.171875 55.265625 
Q 40.578125 54.546875 44.28125 53.078125 
z
" id="DejaVuSans-73"/>
     </defs>
     <g transform="translate(21.952389 185.337187)rotate(-90)scale(0.14 -0.14)">
      <use xlink:href="#DejaVuSans-4e"/>
      <use x="74.804688" xlink:href="#DejaVuSans-75"/>
      <use x="138.183594" xlink:href="#DejaVuSans-6d"/>
      <use x="235.595703" xlink:href="#DejaVuSans-62"/>
      <use x="299.072266" xlink:href="#DejaVuSans-65"/>
      <use x="360.595703" xlink:href="#DejaVuSans-72"/>
      <use x="401.708984" xlink:href="#DejaVuSans-20"/>
      <use x="433.496094" xlink:href="#DejaVuSans-6f"/>
      <use x="494.677734" xlink:href="#DejaVuSans-66"/>
      <use x="529.882812" xlink:href="#DejaVuSans-20"/>
      <use x="561.669922" xlink:href="#DejaVuSans-6f"/>
      <use x="622.851562" xlink:href="#DejaVuSans-72"/>
      <use x="663.964844" xlink:href="#DejaVuSans-62"/>
      <use x="727.441406" xlink:href="#DejaVuSans-69"/>
      <use x="755.224609" xlink:href="#DejaVuSans-74"/>
      <use x="794.433594" xlink:href="#DejaVuSans-73"/>
     </g>
    </g>
   </g>
   <g id="line2d_28">
    <path clip-path="url(#p9aa388ea7c)" d="M 60.503952 234.659853 
L 135.819583 207.159446 
L 167.016339 191.072739 
L 190.954451 179.659038 
L 211.135214 170.805885 
L 228.914823 163.572331 
L 244.988818 157.456449 
L 259.770382 152.158631 
L 273.528726 147.485624 
L 286.450845 139.524074 
L 298.67289 136.071924 
L 310.297641 132.896253 
L 321.404951 129.956042 
" style="fill:none;stroke:#1f77b4;stroke-linecap:square;stroke-width:2;"/>
    <defs>
     <path d="M 0 4.5 
C 1.193414 4.5 2.338109 4.025852 3.181981 3.181981 
C 4.025852 2.338109 4.5 1.193414 4.5 0 
C 4.5 -1.193414 4.025852 -2.338109 3.181981 -3.181981 
C 2.338109 -4.025852 1.193414 -4.5 0 -4.5 
C -1.193414 -4.5 -2.338109 -4.025852 -3.181981 -3.181981 
C -4.025852 -2.338109 -4.5 -1.193414 -4.5 0 
C -4.5 1.193414 -4.025852 2.338109 -3.181981 3.181981 
C -2.338109 4.025852 -1.193414 4.5 0 4.5 
z
" id="m47ec7066c9" style="stroke:#1f77b4;"/>
    </defs>
    <g clip-path="url(#p9aa388ea7c)">
     <use style="fill:#1f77b4;stroke:#1f77b4;" x="60.503952" xlink:href="#m47ec7066c9" y="234.659853"/>
     <use style="fill:#1f77b4;stroke:#1f77b4;" x="135.819583" xlink:href="#m47ec7066c9" y="207.159446"/>
     <use style="fill:#1f77b4;stroke:#1f77b4;" x="167.016339" xlink:href="#m47ec7066c9" y="191.072739"/>
     <use style="fill:#1f77b4;stroke:#1f77b4;" x="190.954451" xlink:href="#m47ec7066c9" y="179.659038"/>
     <use style="fill:#1f77b4;stroke:#1f77b4;" x="211.135214" xlink:href="#m47ec7066c9" y="170.805885"/>
     <use style="fill:#1f77b4;stroke:#1f77b4;" x="228.914823" xlink:href="#m47ec7066c9" y="163.572331"/>
     <use style="fill:#1f77b4;stroke:#1f77b4;" x="244.988818" xlink:href="#m47ec7066c9" y="157.456449"/>
     <use style="fill:#1f77b4;stroke:#1f77b4;" x="259.770382" xlink:href="#m47ec7066c9" y="152.158631"/>
     <use style="fill:#1f77b4;stroke:#1f77b4;" x="273.528726" xlink:href="#m47ec7066c9" y="147.485624"/>
     <use style="fill:#1f77b4;stroke:#1f77b4;" x="286.450845" xlink:href="#m47ec7066c9" y="139.524074"/>
     <use style="fill:#1f77b4;stroke:#1f77b4;" x="298.67289" xlink:href="#m47ec7066c9" y="136.071924"/>
     <use style="fill:#1f77b4;stroke:#1f77b4;" x="310.297641" xlink:href="#m47ec7066c9" y="132.896253"/>
     <use style="fill:#1f77b4;stroke:#1f77b4;" x="321.404951" xlink:href="#m47ec7066c9" y="129.956042"/>
    </g>
   </g>
   <g id="line2d_29">
    <path clip-path="url(#p9aa388ea7c)" d="M 135.819583 207.159446 
L 167.016339 179.659038 
L 190.954451 143.305477 
L 211.135214 124.658224 
L 228.914823 106.951916 
L 244.988818 101.063397 
L 259.770382 79.451509 
" style="fill:none;stroke:#ff7f0e;stroke-linecap:square;stroke-width:2;"/>
    <defs>
     <path d="M 0 4.5 
C 1.193414 4.5 2.338109 4.025852 3.181981 3.181981 
C 4.025852 2.338109 4.5 1.193414 4.5 0 
C 4.5 -1.193414 4.025852 -2.338109 3.181981 -3.181981 
C 2.338109 -4.025852 1.193414 -4.5 0 -4.5 
C -1.193414 -4.5 -2.338109 -4.025852 -3.181981 -3.181981 
C -4.025852 -2.338109 -4.5 -1.193414 -4.5 0 
C -4.5 1.193414 -4.025852 2.338109 -3.181981 3.181981 
C -2.338109 4.025852 -1.193414 4.5 0 4.5 
z
" id="m4aa9c93311" style="stroke:#ff7f0e;"/>
    </defs>
    <g clip-path="url(#p9aa388ea7c)">
     <use style="fill:#ff7f0e;stroke:#ff7f0e;" x="135.819583" xlink:href="#m4aa9c93311" y="207.159446"/>
     <use style="fill:#ff7f0e;stroke:#ff7f0e;" x="167.016339" xlink:href="#m4aa9c93311" y="179.659038"/>
     <use style="fill:#ff7f0e;stroke:#ff7f0e;" x="190.954451" xlink:href="#m4aa9c93311" y="143.305477"/>
     <use style="fill:#ff7f0e;stroke:#ff7f0e;" x="211.135214" xlink:href="#m4aa9c93311" y="124.658224"/>
     <use style="fill:#ff7f0e;stroke:#ff7f0e;" x="228.914823" xlink:href="#m4aa9c93311" y="106.951916"/>
     <use style="fill:#ff7f0e;stroke:#ff7f0e;" x="244.988818" xlink:href="#m4aa9c93311" y="101.063397"/>
     <use style="fill:#ff7f0e;stroke:#ff7f0e;" x="259.770382" xlink:href="#m4aa9c93311" y="79.451509"/>
    </g>
   </g>
   <g id="line2d_30">
    <path clip-path="url(#p9aa388ea7c)" d="M 60.503952 234.659853 
L 135.819583 170.805885 
L 167.016339 139.524074 
L 190.954451 92.48481 
L 211.135214 67.839929 
L 228.914823 37.760475 
" style="fill:none;stroke:#2ca02c;stroke-linecap:square;stroke-width:2;"/>
    <defs>
     <path d="M 0 4.5 
C 1.193414 4.5 2.338109 4.025852 3.181981 3.181981 
C 4.025852 2.338109 4.5 1.193414 4.5 0 
C 4.5 -1.193414 4.025852 -2.338109 3.181981 -3.181981 
C 2.338109 -4.025852 1.193414 -4.5 0 -4.5 
C -1.193414 -4.5 -2.338109 -4.025852 -3.181981 -3.181981 
C -4.025852 -2.338109 -4.5 -1.193414 -4.5 0 
C -4.5 1.193414 -4.025852 2.338109 -3.181981 3.181981 
C -2.338109 4.025852 -1.193414 4.5 0 4.5 
z
" id="m5415677eb1" style="stroke:#2ca02c;"/>
    </defs>
    <g clip-path="url(#p9aa388ea7c)">
     <use style="fill:#2ca02c;stroke:#2ca02c;" x="60.503952" xlink:href="#m5415677eb1" y="234.659853"/>
     <use style="fill:#2ca02c;stroke:#2ca02c;" x="135.819583" xlink:href="#m5415677eb1" y="170.805885"/>
     <use style="fill:#2ca02c;stroke:#2ca02c;" x="167.016339" xlink:href="#m5415677eb1" y="139.524074"/>
     <use style="fill:#2ca02c;stroke:#2ca02c;" x="190.954451" xlink:href="#m5415677eb1" y="92.48481"/>
     <use style="fill:#2ca02c;stroke:#2ca02c;" x="211.135214" xlink:href="#m5415677eb1" y="67.839929"/>
     <use style="fill:#2ca02c;stroke:#2ca02c;" x="228.914823" xlink:href="#m5415677eb1" y="37.760475"/>
    </g>
   </g>
   <g id="line2d_31">
    <path clip-path="url(#p9aa388ea7c)" d="M 135.819583 170.805885 
L 167.016339 127.21877 
L 190.954451 57.022852 
L 211.135214 23.859993 
" style="fill:none;stroke:#d62728;stroke-linecap:square;stroke-width:2;"/>
    <defs>
     <path d="M 0 4.5 
C 1.193414 4.5 2.338109 4.025852 3.181981 3.181981 
C 4.025852 2.338109 4.5 1.193414 4.5 0 
C 4.5 -1.193414 4.025852 -2.338109 3.181981 -3.181981 
C 2.338109 -4.025852 1.193414 -4.5 0 -4.5 
C -1.193414 -4.5 -2.338109 -4.025852 -3.181981 -3.181981 
C -4.025852 -2.338109 -4.5 -1.193414 -4.5 0 
C -4.5 1.193414 -4.025852 2.338109 -3.181981 3.181981 
C -2.338109 4.025852 -1.193414 4.5 0 4.5 
z
" id="ma0bd20a783" style="stroke:#d62728;"/>
    </defs>
    <g clip-path="url(#p9aa388ea7c)">
     <use style="fill:#d62728;stroke:#d62728;" x="135.819583" xlink:href="#ma0bd20a783" y="170.805885"/>
     <use style="fill:#d62728;stroke:#d62728;" x="167.016339" xlink:href="#ma0bd20a783" y="127.21877"/>
     <use style="fill:#d62728;stroke:#d62728;" x="190.954451" xlink:href="#ma0bd20a783" y="57.022852"/>
     <use style="fill:#d62728;stroke:#d62728;" x="211.135214" xlink:href="#ma0bd20a783" y="23.859993"/>
    </g>
   </g>
   <g id="patch_3">
    <path d="M 60.503952 238.84 
L 60.503952 13.32 
" style="fill:none;stroke:#000000;stroke-linecap:square;stroke-linejoin:miter;stroke-width:0.8;"/>
   </g>
   <g id="patch_4">
    <path d="M 323.4975 238.84 
L 323.4975 13.32 
" style="fill:none;stroke:#000000;stroke-linecap:square;stroke-linejoin:miter;stroke-width:0.8;"/>
   </g>
   <g id="patch_5">
    <path d="M 60.503952 238.84 
L 323.4975 238.84 
" style="fill:none;stroke:#000000;stroke-linecap:square;stroke-linejoin:miter;stroke-width:0.8;"/>
   </g>
   <g id="patch_6">
    <path d="M 60.503952 13.32 
L 323.4975 13.32 
" style="fill:none;stroke:#000000;stroke-linecap:square;stroke-linejoin:miter;stroke-width:0.8;"/>
   </g>
   <g id="legend_1">
    <g id="patch_7">
     <path d="M 70.303952 123.395625 
L 124.011452 123.395625 
Q 126.811452 123.395625 126.811452 120.595625 
L 126.811452 23.12 
Q 126.811452 20.32 124.011452 20.32 
L 70.303952 20.32 
Q 67.503952 20.32 67.503952 23.12 
L 67.503952 120.595625 
Q 67.503952 123.395625 70.303952 123.395625 
z
" style="fill:#ffffff;opacity:0.8;stroke:#cccccc;stroke-linejoin:miter;"/>
    </g>
    <g id="text_12">
     <!-- Order -->
     <defs>
      <path d="M 39.40625 66.21875 
Q 28.65625 66.21875 22.328125 58.203125 
Q 16.015625 50.203125 16.015625 36.375 
Q 16.015625 22.609375 22.328125 14.59375 
Q 28.65625 6.59375 39.40625 6.59375 
Q 50.140625 6.59375 56.421875 14.59375 
Q 62.703125 22.609375 62.703125 36.375 
Q 62.703125 50.203125 56.421875 58.203125 
Q 50.140625 66.21875 39.40625 66.21875 
z
M 39.40625 74.21875 
Q 54.734375 74.21875 63.90625 63.9375 
Q 73.09375 53.65625 73.09375 36.375 
Q 73.09375 19.140625 63.90625 8.859375 
Q 54.734375 -1.421875 39.40625 -1.421875 
Q 24.03125 -1.421875 14.8125 8.828125 
Q 5.609375 19.09375 5.609375 36.375 
Q 5.609375 53.65625 14.8125 63.9375 
Q 24.03125 74.21875 39.40625 74.21875 
z
" id="DejaVuSans-4f"/>
      <path d="M 45.40625 46.390625 
L 45.40625 75.984375 
L 54.390625 75.984375 
L 54.390625 0 
L 45.40625 0 
L 45.40625 8.203125 
Q 42.578125 3.328125 38.25 0.953125 
Q 33.9375 -1.421875 27.875 -1.421875 
Q 17.96875 -1.421875 11.734375 6.484375 
Q 5.515625 14.40625 5.515625 27.296875 
Q 5.515625 40.1875 11.734375 48.09375 
Q 17.96875 56 27.875 56 
Q 33.9375 56 38.25 53.625 
Q 42.578125 51.265625 45.40625 46.390625 
z
M 14.796875 27.296875 
Q 14.796875 17.390625 18.875 11.75 
Q 22.953125 6.109375 30.078125 6.109375 
Q 37.203125 6.109375 41.296875 11.75 
Q 45.40625 17.390625 45.40625 27.296875 
Q 45.40625 37.203125 41.296875 42.84375 
Q 37.203125 48.484375 30.078125 48.484375 
Q 22.953125 48.484375 18.875 42.84375 
Q 14.796875 37.203125 14.796875 27.296875 
z
" id="DejaVuSans-64"/>
     </defs>
     <g transform="translate(82.860827 33.518438)scale(0.1 -0.1)">
      <use xlink:href="#DejaVuSans-4f"/>
      <use x="78.710938" xlink:href="#DejaVuSans-72"/>
      <use x="119.808594" xlink:href="#DejaVuSans-64"/>
      <use x="183.285156" xlink:href="#DejaVuSans-65"/>
      <use x="244.808594" xlink:href="#DejaVuSans-72"/>
     </g>
    </g>
    <g id="line2d_32">
     <path d="M 73.103952 48.335937 
L 101.103952 48.335937 
" style="fill:none;stroke:#1f77b4;stroke-linecap:square;stroke-width:2;"/>
    </g>
    <g id="line2d_33">
     <g>
      <use style="fill:#1f77b4;stroke:#1f77b4;" x="87.103952" xlink:href="#m47ec7066c9" y="48.335937"/>
     </g>
    </g>
    <g id="text_13">
     <!-- 2 -->
     <g transform="translate(112.303952 53.235937)scale(0.14 -0.14)">
      <use xlink:href="#DejaVuSans-32"/>
     </g>
    </g>
    <g id="line2d_34">
     <path d="M 73.103952 68.885312 
L 101.103952 68.885312 
" style="fill:none;stroke:#ff7f0e;stroke-linecap:square;stroke-width:2;"/>
    </g>
    <g id="line2d_35">
     <g>
      <use style="fill:#ff7f0e;stroke:#ff7f0e;" x="87.103952" xlink:href="#m4aa9c93311" y="68.885312"/>
     </g>
    </g>
    <g id="text_14">
     <!-- 3 -->
     <defs>
      <path d="M 40.578125 39.3125 
Q 47.65625 37.796875 51.625 33 
Q 55.609375 28.21875 55.609375 21.1875 
Q 55.609375 10.40625 48.1875 4.484375 
Q 40.765625 -1.421875 27.09375 -1.421875 
Q 22.515625 -1.421875 17.65625 -0.515625 
Q 12.796875 0.390625 7.625 2.203125 
L 7.625 11.71875 
Q 11.71875 9.328125 16.59375 8.109375 
Q 21.484375 6.890625 26.8125 6.890625 
Q 36.078125 6.890625 40.9375 10.546875 
Q 45.796875 14.203125 45.796875 21.1875 
Q 45.796875 27.640625 41.28125 31.265625 
Q 36.765625 34.90625 28.71875 34.90625 
L 20.21875 34.90625 
L 20.21875 43.015625 
L 29.109375 43.015625 
Q 36.375 43.015625 40.234375 45.921875 
Q 44.09375 48.828125 44.09375 54.296875 
Q 44.09375 59.90625 40.109375 62.90625 
Q 36.140625 65.921875 28.71875 65.921875 
Q 24.65625 65.921875 20.015625 65.03125 
Q 15.375 64.15625 9.8125 62.3125 
L 9.8125 71.09375 
Q 15.4375 72.65625 20.34375 73.4375 
Q 25.25 74.21875 29.59375 74.21875 
Q 40.828125 74.21875 47.359375 69.109375 
Q 53.90625 64.015625 53.90625 55.328125 
Q 53.90625 49.265625 50.4375 45.09375 
Q 46.96875 40.921875 40.578125 39.3125 
z
" id="DejaVuSans-33"/>
     </defs>
     <g transform="translate(112.303952 73.785312)scale(0.14 -0.14)">
      <use xlink:href="#DejaVuSans-33"/>
     </g>
    </g>
    <g id="line2d_36">
     <path d="M 73.103952 89.434687 
L 101.103952 89.434687 
" style="fill:none;stroke:#2ca02c;stroke-linecap:square;stroke-width:2;"/>
    </g>
    <g id="line2d_37">
     <g>
      <use style="fill:#2ca02c;stroke:#2ca02c;" x="87.103952" xlink:href="#m5415677eb1" y="89.434687"/>
     </g>
    </g>
    <g id="text_15">
     <!-- 4 -->
     <g transform="translate(112.303952 94.334687)scale(0.14 -0.14)">
      <use xlink:href="#DejaVuSans-34"/>
     </g>
    </g>
    <g id="line2d_38">
     <path d="M 73.103952 109.984062 
L 101.103952 109.984062 
" style="fill:none;stroke:#d62728;stroke-linecap:square;stroke-width:2;"/>
    </g>
    <g id="line2d_39">
     <g>
      <use style="fill:#d62728;stroke:#d62728;" x="87.103952" xlink:href="#ma0bd20a783" y="109.984062"/>
     </g>
    </g>
    <g id="text_16">
     <!-- 5 -->
     <defs>
      <path d="M 10.796875 72.90625 
L 49.515625 72.90625 
L 49.515625 64.59375 
L 19.828125 64.59375 
L 19.828125 46.734375 
Q 21.96875 47.46875 24.109375 47.828125 
Q 26.265625 48.1875 28.421875 48.1875 
Q 40.625 48.1875 47.75 41.5 
Q 54.890625 34.8125 54.890625 23.390625 
Q 54.890625 11.625 47.5625 5.09375 
Q 40.234375 -1.421875 26.90625 -1.421875 
Q 22.3125 -1.421875 17.546875 -0.640625 
Q 12.796875 0.140625 7.71875 1.703125 
L 7.71875 11.625 
Q 12.109375 9.234375 16.796875 8.0625 
Q 21.484375 6.890625 26.703125 6.890625 
Q 35.15625 6.890625 40.078125 11.328125 
Q 45.015625 15.765625 45.015625 23.390625 
Q 45.015625 31 40.078125 35.4375 
Q 35.15625 39.890625 26.703125 39.890625 
Q 22.75 39.890625 18.8125 39.015625 
Q 14.890625 38.140625 10.796875 36.28125 
z
" id="DejaVuSans-35"/>
     </defs>
     <g transform="translate(112.303952 114.884062)scale(0.14 -0.14)">
      <use xlink:href="#DejaVuSans-35"/>
     </g>
    </g>
   </g>
  </g>
  <g id="axes_2">
   <g id="patch_8">
    <path d="M 392.922702 238.84 
L 655.91625 238.84 
L 655.91625 13.32 
L 392.922702 13.32 
z
" style="fill:#ffffff;"/>
   </g>
   <g id="matplotlib.axis_3">
    <g id="xtick_7">
     <g id="line2d_40">
      <g>
       <use style="stroke:#000000;stroke-width:0.8;" x="392.922702" xlink:href="#medceae4d1b" y="238.84"/>
      </g>
     </g>
     <g id="text_17">
      <!-- 0 -->
      <g transform="translate(388.468952 256.477812)scale(0.14 -0.14)">
       <use xlink:href="#DejaVuSans-30"/>
      </g>
     </g>
    </g>
    <g id="xtick_8">
     <g id="line2d_41">
      <g>
       <use style="stroke:#000000;stroke-width:0.8;" x="445.521411" xlink:href="#medceae4d1b" y="238.84"/>
      </g>
     </g>
     <g id="text_18">
      <!-- 2 -->
      <g transform="translate(441.067661 256.477812)scale(0.14 -0.14)">
       <use xlink:href="#DejaVuSans-32"/>
      </g>
     </g>
    </g>
    <g id="xtick_9">
     <g id="line2d_42">
      <g>
       <use style="stroke:#000000;stroke-width:0.8;" x="498.120121" xlink:href="#medceae4d1b" y="238.84"/>
      </g>
     </g>
     <g id="text_19">
      <!-- 4 -->
      <g transform="translate(493.666371 256.477812)scale(0.14 -0.14)">
       <use xlink:href="#DejaVuSans-34"/>
      </g>
     </g>
    </g>
    <g id="xtick_10">
     <g id="line2d_43">
      <g>
       <use style="stroke:#000000;stroke-width:0.8;" x="550.718831" xlink:href="#medceae4d1b" y="238.84"/>
      </g>
     </g>
     <g id="text_20">
      <!-- 6 -->
      <g transform="translate(546.265081 256.477812)scale(0.14 -0.14)">
       <use xlink:href="#DejaVuSans-36"/>
      </g>
     </g>
    </g>
    <g id="xtick_11">
     <g id="line2d_44">
      <g>
       <use style="stroke:#000000;stroke-width:0.8;" x="603.31754" xlink:href="#medceae4d1b" y="238.84"/>
      </g>
     </g>
     <g id="text_21">
      <!-- 8 -->
      <g transform="translate(598.86379 256.477812)scale(0.14 -0.14)">
       <use xlink:href="#DejaVuSans-38"/>
      </g>
     </g>
    </g>
    <g id="xtick_12">
     <g id="line2d_45">
      <g>
       <use style="stroke:#000000;stroke-width:0.8;" x="655.91625" xlink:href="#medceae4d1b" y="238.84"/>
      </g>
     </g>
     <g id="text_22">
      <!-- 10 -->
      <g transform="translate(647.00875 256.477812)scale(0.14 -0.14)">
       <use xlink:href="#DejaVuSans-31"/>
       <use x="63.623047" xlink:href="#DejaVuSans-30"/>
      </g>
     </g>
    </g>
    <g id="text_23">
     <!-- Cutoff (A) -->
     <g transform="translate(490.664163 274.027187)scale(0.14 -0.14)">
      <use xlink:href="#DejaVuSans-43"/>
      <use x="69.824219" xlink:href="#DejaVuSans-75"/>
      <use x="133.203125" xlink:href="#DejaVuSans-74"/>
      <use x="172.412109" xlink:href="#DejaVuSans-6f"/>
      <use x="233.59375" xlink:href="#DejaVuSans-66"/>
      <use x="268.798828" xlink:href="#DejaVuSans-66"/>
      <use x="304.003906" xlink:href="#DejaVuSans-20"/>
      <use x="335.791016" xlink:href="#DejaVuSans-28"/>
      <use x="374.804688" xlink:href="#DejaVuSans-41"/>
      <use x="443.212891" xlink:href="#DejaVuSans-29"/>
     </g>
    </g>
   </g>
   <g id="matplotlib.axis_4">
    <g id="ytick_22">
     <g id="line2d_46">
      <g>
       <use style="stroke:#000000;stroke-width:0.8;" x="392.922702" xlink:href="#mc82f4919a3" y="236.281554"/>
      </g>
     </g>
     <g id="text_24">
      <!-- $\mathdefault{10^{0}}$ -->
      <g transform="translate(361.282702 241.60046)scale(0.14 -0.14)">
       <use transform="translate(0 0.765625)" xlink:href="#DejaVuSans-31"/>
       <use transform="translate(63.623047 0.765625)" xlink:href="#DejaVuSans-30"/>
       <use transform="translate(128.203125 39.046875)scale(0.7)" xlink:href="#DejaVuSans-30"/>
      </g>
     </g>
    </g>
    <g id="ytick_23">
     <g id="line2d_47">
      <g>
       <use style="stroke:#000000;stroke-width:0.8;" x="392.922702" xlink:href="#mc82f4919a3" y="180.36839"/>
      </g>
     </g>
     <g id="text_25">
      <!-- $\mathdefault{10^{1}}$ -->
      <g transform="translate(361.282702 185.687296)scale(0.14 -0.14)">
       <use transform="translate(0 0.684375)" xlink:href="#DejaVuSans-31"/>
       <use transform="translate(63.623047 0.684375)" xlink:href="#DejaVuSans-30"/>
       <use transform="translate(128.203125 38.965625)scale(0.7)" xlink:href="#DejaVuSans-31"/>
      </g>
     </g>
    </g>
    <g id="ytick_24">
     <g id="line2d_48">
      <g>
       <use style="stroke:#000000;stroke-width:0.8;" x="392.922702" xlink:href="#mc82f4919a3" y="124.455226"/>
      </g>
     </g>
     <g id="text_26">
      <!-- $\mathdefault{10^{2}}$ -->
      <g transform="translate(361.282702 129.774132)scale(0.14 -0.14)">
       <use transform="translate(0 0.765625)" xlink:href="#DejaVuSans-31"/>
       <use transform="translate(63.623047 0.765625)" xlink:href="#DejaVuSans-30"/>
       <use transform="translate(128.203125 39.046875)scale(0.7)" xlink:href="#DejaVuSans-32"/>
      </g>
     </g>
    </g>
    <g id="ytick_25">
     <g id="line2d_49">
      <g>
       <use style="stroke:#000000;stroke-width:0.8;" x="392.922702" xlink:href="#mc82f4919a3" y="68.542062"/>
      </g>
     </g>
     <g id="text_27">
      <!-- $\mathdefault{10^{3}}$ -->
      <g transform="translate(361.282702 73.860969)scale(0.14 -0.14)">
       <use transform="translate(0 0.765625)" xlink:href="#DejaVuSans-31"/>
       <use transform="translate(63.623047 0.765625)" xlink:href="#DejaVuSans-30"/>
       <use transform="translate(128.203125 39.046875)scale(0.7)" xlink:href="#DejaVuSans-33"/>
      </g>
     </g>
    </g>
    <g id="ytick_26">
     <g id="line2d_50">
      <g>
       <use style="stroke:#000000;stroke-width:0.6;" x="392.922702" xlink:href="#m53ee959170" y="238.84"/>
      </g>
     </g>
    </g>
    <g id="ytick_27">
     <g id="line2d_51">
      <g>
       <use style="stroke:#000000;stroke-width:0.6;" x="392.922702" xlink:href="#m53ee959170" y="219.450014"/>
      </g>
     </g>
    </g>
    <g id="ytick_28">
     <g id="line2d_52">
      <g>
       <use style="stroke:#000000;stroke-width:0.6;" x="392.922702" xlink:href="#m53ee959170" y="209.604195"/>
      </g>
     </g>
    </g>
    <g id="ytick_29">
     <g id="line2d_53">
      <g>
       <use style="stroke:#000000;stroke-width:0.6;" x="392.922702" xlink:href="#m53ee959170" y="202.618475"/>
      </g>
     </g>
    </g>
    <g id="ytick_30">
     <g id="line2d_54">
      <g>
       <use style="stroke:#000000;stroke-width:0.6;" x="392.922702" xlink:href="#m53ee959170" y="197.19993"/>
      </g>
     </g>
    </g>
    <g id="ytick_31">
     <g id="line2d_55">
      <g>
       <use style="stroke:#000000;stroke-width:0.6;" x="392.922702" xlink:href="#m53ee959170" y="192.772656"/>
      </g>
     </g>
    </g>
    <g id="ytick_32">
     <g id="line2d_56">
      <g>
       <use style="stroke:#000000;stroke-width:0.6;" x="392.922702" xlink:href="#m53ee959170" y="189.029449"/>
      </g>
     </g>
    </g>
    <g id="ytick_33">
     <g id="line2d_57">
      <g>
       <use style="stroke:#000000;stroke-width:0.6;" x="392.922702" xlink:href="#m53ee959170" y="185.786936"/>
      </g>
     </g>
    </g>
    <g id="ytick_34">
     <g id="line2d_58">
      <g>
       <use style="stroke:#000000;stroke-width:0.6;" x="392.922702" xlink:href="#m53ee959170" y="182.926836"/>
      </g>
     </g>
    </g>
    <g id="ytick_35">
     <g id="line2d_59">
      <g>
       <use style="stroke:#000000;stroke-width:0.6;" x="392.922702" xlink:href="#m53ee959170" y="163.536851"/>
      </g>
     </g>
    </g>
    <g id="ytick_36">
     <g id="line2d_60">
      <g>
       <use style="stroke:#000000;stroke-width:0.6;" x="392.922702" xlink:href="#m53ee959170" y="153.691031"/>
      </g>
     </g>
    </g>
    <g id="ytick_37">
     <g id="line2d_61">
      <g>
       <use style="stroke:#000000;stroke-width:0.6;" x="392.922702" xlink:href="#m53ee959170" y="146.705311"/>
      </g>
     </g>
    </g>
    <g id="ytick_38">
     <g id="line2d_62">
      <g>
       <use style="stroke:#000000;stroke-width:0.6;" x="392.922702" xlink:href="#m53ee959170" y="141.286766"/>
      </g>
     </g>
    </g>
    <g id="ytick_39">
     <g id="line2d_63">
      <g>
       <use style="stroke:#000000;stroke-width:0.6;" x="392.922702" xlink:href="#m53ee959170" y="136.859492"/>
      </g>
     </g>
    </g>
    <g id="ytick_40">
     <g id="line2d_64">
      <g>
       <use style="stroke:#000000;stroke-width:0.6;" x="392.922702" xlink:href="#m53ee959170" y="133.116285"/>
      </g>
     </g>
    </g>
    <g id="ytick_41">
     <g id="line2d_65">
      <g>
       <use style="stroke:#000000;stroke-width:0.6;" x="392.922702" xlink:href="#m53ee959170" y="129.873772"/>
      </g>
     </g>
    </g>
    <g id="ytick_42">
     <g id="line2d_66">
      <g>
       <use style="stroke:#000000;stroke-width:0.6;" x="392.922702" xlink:href="#m53ee959170" y="127.013672"/>
      </g>
     </g>
    </g>
    <g id="ytick_43">
     <g id="line2d_67">
      <g>
       <use style="stroke:#000000;stroke-width:0.6;" x="392.922702" xlink:href="#m53ee959170" y="107.623687"/>
      </g>
     </g>
    </g>
    <g id="ytick_44">
     <g id="line2d_68">
      <g>
       <use style="stroke:#000000;stroke-width:0.6;" x="392.922702" xlink:href="#m53ee959170" y="97.777867"/>
      </g>
     </g>
    </g>
    <g id="ytick_45">
     <g id="line2d_69">
      <g>
       <use style="stroke:#000000;stroke-width:0.6;" x="392.922702" xlink:href="#m53ee959170" y="90.792147"/>
      </g>
     </g>
    </g>
    <g id="ytick_46">
     <g id="line2d_70">
      <g>
       <use style="stroke:#000000;stroke-width:0.6;" x="392.922702" xlink:href="#m53ee959170" y="85.373602"/>
      </g>
     </g>
    </g>
    <g id="ytick_47">
     <g id="line2d_71">
      <g>
       <use style="stroke:#000000;stroke-width:0.6;" x="392.922702" xlink:href="#m53ee959170" y="80.946328"/>
      </g>
     </g>
    </g>
    <g id="ytick_48">
     <g id="line2d_72">
      <g>
       <use style="stroke:#000000;stroke-width:0.6;" x="392.922702" xlink:href="#m53ee959170" y="77.203121"/>
      </g>
     </g>
    </g>
    <g id="ytick_49">
     <g id="line2d_73">
      <g>
       <use style="stroke:#000000;stroke-width:0.6;" x="392.922702" xlink:href="#m53ee959170" y="73.960608"/>
      </g>
     </g>
    </g>
    <g id="ytick_50">
     <g id="line2d_74">
      <g>
       <use style="stroke:#000000;stroke-width:0.6;" x="392.922702" xlink:href="#m53ee959170" y="71.100508"/>
      </g>
     </g>
    </g>
    <g id="ytick_51">
     <g id="line2d_75">
      <g>
       <use style="stroke:#000000;stroke-width:0.6;" x="392.922702" xlink:href="#m53ee959170" y="51.710523"/>
      </g>
     </g>
    </g>
    <g id="ytick_52">
     <g id="line2d_76">
      <g>
       <use style="stroke:#000000;stroke-width:0.6;" x="392.922702" xlink:href="#m53ee959170" y="41.864703"/>
      </g>
     </g>
    </g>
    <g id="ytick_53">
     <g id="line2d_77">
      <g>
       <use style="stroke:#000000;stroke-width:0.6;" x="392.922702" xlink:href="#m53ee959170" y="34.878983"/>
      </g>
     </g>
    </g>
    <g id="ytick_54">
     <g id="line2d_78">
      <g>
       <use style="stroke:#000000;stroke-width:0.6;" x="392.922702" xlink:href="#m53ee959170" y="29.460438"/>
      </g>
     </g>
    </g>
    <g id="ytick_55">
     <g id="line2d_79">
      <g>
       <use style="stroke:#000000;stroke-width:0.6;" x="392.922702" xlink:href="#m53ee959170" y="25.033164"/>
      </g>
     </g>
    </g>
    <g id="ytick_56">
     <g id="line2d_80">
      <g>
       <use style="stroke:#000000;stroke-width:0.6;" x="392.922702" xlink:href="#m53ee959170" y="21.289957"/>
      </g>
     </g>
    </g>
    <g id="ytick_57">
     <g id="line2d_81">
      <g>
       <use style="stroke:#000000;stroke-width:0.6;" x="392.922702" xlink:href="#m53ee959170" y="18.047444"/>
      </g>
     </g>
    </g>
    <g id="ytick_58">
     <g id="line2d_82">
      <g>
       <use style="stroke:#000000;stroke-width:0.6;" x="392.922702" xlink:href="#m53ee959170" y="15.187345"/>
      </g>
     </g>
    </g>
    <g id="text_28">
     <!-- Number of clusters -->
     <defs>
      <path d="M 48.78125 52.59375 
L 48.78125 44.1875 
Q 44.96875 46.296875 41.140625 47.34375 
Q 37.3125 48.390625 33.40625 48.390625 
Q 24.65625 48.390625 19.8125 42.84375 
Q 14.984375 37.3125 14.984375 27.296875 
Q 14.984375 17.28125 19.8125 11.734375 
Q 24.65625 6.203125 33.40625 6.203125 
Q 37.3125 6.203125 41.140625 7.25 
Q 44.96875 8.296875 48.78125 10.40625 
L 48.78125 2.09375 
Q 45.015625 0.34375 40.984375 -0.53125 
Q 36.96875 -1.421875 32.421875 -1.421875 
Q 20.0625 -1.421875 12.78125 6.34375 
Q 5.515625 14.109375 5.515625 27.296875 
Q 5.515625 40.671875 12.859375 48.328125 
Q 20.21875 56 33.015625 56 
Q 37.15625 56 41.109375 55.140625 
Q 45.0625 54.296875 48.78125 52.59375 
z
" id="DejaVuSans-63"/>
      <path d="M 9.421875 75.984375 
L 18.40625 75.984375 
L 18.40625 0 
L 9.421875 0 
z
" id="DejaVuSans-6c"/>
     </defs>
     <g transform="translate(354.371139 192.849063)rotate(-90)scale(0.14 -0.14)">
      <use xlink:href="#DejaVuSans-4e"/>
      <use x="74.804688" xlink:href="#DejaVuSans-75"/>
      <use x="138.183594" xlink:href="#DejaVuSans-6d"/>
      <use x="235.595703" xlink:href="#DejaVuSans-62"/>
      <use x="299.072266" xlink:href="#DejaVuSans-65"/>
      <use x="360.595703" xlink:href="#DejaVuSans-72"/>
      <use x="401.708984" xlink:href="#DejaVuSans-20"/>
      <use x="433.496094" xlink:href="#DejaVuSans-6f"/>
      <use x="494.677734" xlink:href="#DejaVuSans-66"/>
      <use x="529.882812" xlink:href="#DejaVuSans-20"/>
      <use x="561.669922" xlink:href="#DejaVuSans-63"/>
      <use x="616.650391" xlink:href="#DejaVuSans-6c"/>
      <use x="644.433594" xlink:href="#DejaVuSans-75"/>
      <use x="707.8125" xlink:href="#DejaVuSans-73"/>
      <use x="759.912109" xlink:href="#DejaVuSans-74"/>
      <use x="799.121094" xlink:href="#DejaVuSans-65"/>
      <use x="860.644531" xlink:href="#DejaVuSans-72"/>
      <use x="901.757812" xlink:href="#DejaVuSans-73"/>
     </g>
    </g>
   </g>
   <g id="line2d_83">
    <path clip-path="url(#p9b1d9ff9d3)" d="M 392.922702 236.281554 
L 468.238333 189.029449 
L 499.435089 180.36839 
L 523.373201 161.222455 
L 543.553964 155.36637 
L 561.333573 146.705311 
L 577.407568 144.390915 
L 592.189132 133.820183 
L 605.947476 132.771843 
L 618.869595 127.284991 
L 631.09164 124.213605 
L 642.716391 121.487442 
L 653.823701 119.036681 
" style="fill:none;stroke:#1f77b4;stroke-linecap:square;stroke-width:2;"/>
    <g clip-path="url(#p9b1d9ff9d3)">
     <use style="fill:#1f77b4;stroke:#1f77b4;" x="392.922702" xlink:href="#m47ec7066c9" y="236.281554"/>
     <use style="fill:#1f77b4;stroke:#1f77b4;" x="468.238333" xlink:href="#m47ec7066c9" y="189.029449"/>
     <use style="fill:#1f77b4;stroke:#1f77b4;" x="499.435089" xlink:href="#m47ec7066c9" y="180.36839"/>
     <use style="fill:#1f77b4;stroke:#1f77b4;" x="523.373201" xlink:href="#m47ec7066c9" y="161.222455"/>
     <use style="fill:#1f77b4;stroke:#1f77b4;" x="543.553964" xlink:href="#m47ec7066c9" y="155.36637"/>
     <use style="fill:#1f77b4;stroke:#1f77b4;" x="561.333573" xlink:href="#m47ec7066c9" y="146.705311"/>
     <use style="fill:#1f77b4;stroke:#1f77b4;" x="577.407568" xlink:href="#m47ec7066c9" y="144.390915"/>
     <use style="fill:#1f77b4;stroke:#1f77b4;" x="592.189132" xlink:href="#m47ec7066c9" y="133.820183"/>
     <use style="fill:#1f77b4;stroke:#1f77b4;" x="605.947476" xlink:href="#m47ec7066c9" y="132.771843"/>
     <use style="fill:#1f77b4;stroke:#1f77b4;" x="618.869595" xlink:href="#m47ec7066c9" y="127.284991"/>
     <use style="fill:#1f77b4;stroke:#1f77b4;" x="631.09164" xlink:href="#m47ec7066c9" y="124.213605"/>
     <use style="fill:#1f77b4;stroke:#1f77b4;" x="642.716391" xlink:href="#m47ec7066c9" y="121.487442"/>
     <use style="fill:#1f77b4;stroke:#1f77b4;" x="653.823701" xlink:href="#m47ec7066c9" y="119.036681"/>
    </g>
   </g>
   <g id="line2d_84">
    <path clip-path="url(#p9b1d9ff9d3)" d="M 468.238333 163.536851 
L 499.435089 147.950855 
L 523.373201 112.148287 
L 543.553964 100.882017 
L 561.333573 84.050477 
L 577.407568 79.684601 
L 592.189132 58.891286 
" style="fill:none;stroke:#ff7f0e;stroke-linecap:square;stroke-width:2;"/>
    <g clip-path="url(#p9b1d9ff9d3)">
     <use style="fill:#ff7f0e;stroke:#ff7f0e;" x="468.238333" xlink:href="#m4aa9c93311" y="163.536851"/>
     <use style="fill:#ff7f0e;stroke:#ff7f0e;" x="499.435089" xlink:href="#m4aa9c93311" y="147.950855"/>
     <use style="fill:#ff7f0e;stroke:#ff7f0e;" x="523.373201" xlink:href="#m4aa9c93311" y="112.148287"/>
     <use style="fill:#ff7f0e;stroke:#ff7f0e;" x="543.553964" xlink:href="#m4aa9c93311" y="100.882017"/>
     <use style="fill:#ff7f0e;stroke:#ff7f0e;" x="561.333573" xlink:href="#m4aa9c93311" y="84.050477"/>
     <use style="fill:#ff7f0e;stroke:#ff7f0e;" x="577.407568" xlink:href="#m4aa9c93311" y="79.684601"/>
     <use style="fill:#ff7f0e;stroke:#ff7f0e;" x="592.189132" xlink:href="#m4aa9c93311" y="58.891286"/>
    </g>
   </g>
   <g id="line2d_85">
    <path clip-path="url(#p9b1d9ff9d3)" d="M 392.922702 236.281554 
L 468.238333 143.845212 
L 499.435089 123.270465 
L 523.373201 74.920282 
L 543.553964 58.663887 
L 561.333573 34.243868 
" style="fill:none;stroke:#2ca02c;stroke-linecap:square;stroke-width:2;"/>
    <g clip-path="url(#p9b1d9ff9d3)">
     <use style="fill:#2ca02c;stroke:#2ca02c;" x="392.922702" xlink:href="#m5415677eb1" y="236.281554"/>
     <use style="fill:#2ca02c;stroke:#2ca02c;" x="468.238333" xlink:href="#m5415677eb1" y="143.845212"/>
     <use style="fill:#2ca02c;stroke:#2ca02c;" x="499.435089" xlink:href="#m5415677eb1" y="123.270465"/>
     <use style="fill:#2ca02c;stroke:#2ca02c;" x="523.373201" xlink:href="#m5415677eb1" y="74.920282"/>
     <use style="fill:#2ca02c;stroke:#2ca02c;" x="543.553964" xlink:href="#m5415677eb1" y="58.663887"/>
     <use style="fill:#2ca02c;stroke:#2ca02c;" x="561.333573" xlink:href="#m5415677eb1" y="34.243868"/>
    </g>
   </g>
   <g id="line2d_86">
    <path clip-path="url(#p9b1d9ff9d3)" d="M 468.238333 129.873772 
L 499.435089 104.229878 
L 523.373201 45.079481 
L 543.553964 23.937217 
" style="fill:none;stroke:#d62728;stroke-linecap:square;stroke-width:2;"/>
    <g clip-path="url(#p9b1d9ff9d3)">
     <use style="fill:#d62728;stroke:#d62728;" x="468.238333" xlink:href="#ma0bd20a783" y="129.873772"/>
     <use style="fill:#d62728;stroke:#d62728;" x="499.435089" xlink:href="#ma0bd20a783" y="104.229878"/>
     <use style="fill:#d62728;stroke:#d62728;" x="523.373201" xlink:href="#ma0bd20a783" y="45.079481"/>
     <use style="fill:#d62728;stroke:#d62728;" x="543.553964" xlink:href="#ma0bd20a783" y="23.937217"/>
    </g>
   </g>
   <g id="patch_9">
    <path d="M 392.922702 238.84 
L 392.922702 13.32 
" style="fill:none;stroke:#000000;stroke-linecap:square;stroke-linejoin:miter;stroke-width:0.8;"/>
   </g>
   <g id="patch_10">
    <path d="M 655.91625 238.84 
L 655.91625 13.32 
" style="fill:none;stroke:#000000;stroke-linecap:square;stroke-linejoin:miter;stroke-width:0.8;"/>
   </g>
   <g id="patch_11">
    <path d="M 392.922702 238.84 
L 655.91625 238.84 
" style="fill:none;stroke:#000000;stroke-linecap:square;stroke-linejoin:miter;stroke-width:0.8;"/>
   </g>
   <g id="patch_12">
    <path d="M 392.922702 13.32 
L 655.91625 13.32 
" style="fill:none;stroke:#000000;stroke-linecap:square;stroke-linejoin:miter;stroke-width:0.8;"/>
   </g>
   <g id="legend_2">
    <g id="patch_13">
     <path d="M 402.722702 123.395625 
L 456.430202 123.395625 
Q 459.230202 123.395625 459.230202 120.595625 
L 459.230202 23.12 
Q 459.230202 20.32 456.430202 20.32 
L 402.722702 20.32 
Q 399.922702 20.32 399.922702 23.12 
L 399.922702 120.595625 
Q 399.922702 123.395625 402.722702 123.395625 
z
" style="fill:#ffffff;opacity:0.8;stroke:#cccccc;stroke-linejoin:miter;"/>
    </g>
    <g id="text_29">
     <!-- Order -->
     <g transform="translate(415.279577 33.518438)scale(0.1 -0.1)">
      <use xlink:href="#DejaVuSans-4f"/>
      <use x="78.710938" xlink:href="#DejaVuSans-72"/>
      <use x="119.808594" xlink:href="#DejaVuSans-64"/>
      <use x="183.285156" xlink:href="#DejaVuSans-65"/>
      <use x="244.808594" xlink:href="#DejaVuSans-72"/>
     </g>
    </g>
    <g id="line2d_87">
     <path d="M 405.522702 48.335937 
L 433.522702 48.335937 
" style="fill:none;stroke:#1f77b4;stroke-linecap:square;stroke-width:2;"/>
    </g>
    <g id="line2d_88">
     <g>
      <use style="fill:#1f77b4;stroke:#1f77b4;" x="419.522702" xlink:href="#m47ec7066c9" y="48.335937"/>
     </g>
    </g>
    <g id="text_30">
     <!-- 2 -->
     <g transform="translate(444.722702 53.235937)scale(0.14 -0.14)">
      <use xlink:href="#DejaVuSans-32"/>
     </g>
    </g>
    <g id="line2d_89">
     <path d="M 405.522702 68.885312 
L 433.522702 68.885312 
" style="fill:none;stroke:#ff7f0e;stroke-linecap:square;stroke-width:2;"/>
    </g>
    <g id="line2d_90">
     <g>
      <use style="fill:#ff7f0e;stroke:#ff7f0e;" x="419.522702" xlink:href="#m4aa9c93311" y="68.885312"/>
     </g>
    </g>
    <g id="text_31">
     <!-- 3 -->
     <g transform="translate(444.722702 73.785312)scale(0.14 -0.14)">
      <use xlink:href="#DejaVuSans-33"/>
     </g>
    </g>
    <g id="line2d_91">
     <path d="M 405.522702 89.434687 
L 433.522702 89.434687 
" style="fill:none;stroke:#2ca02c;stroke-linecap:square;stroke-width:2;"/>
    </g>
    <g id="line2d_92">
     <g>
      <use style="fill:#2ca02c;stroke:#2ca02c;" x="419.522702" xlink:href="#m5415677eb1" y="89.434687"/>
     </g>
    </g>
    <g id="text_32">
     <!-- 4 -->
     <g transform="translate(444.722702 94.334687)scale(0.14 -0.14)">
      <use xlink:href="#DejaVuSans-34"/>
     </g>
    </g>
    <g id="line2d_93">
     <path d="M 405.522702 109.984062 
L 433.522702 109.984062 
" style="fill:none;stroke:#d62728;stroke-linecap:square;stroke-width:2;"/>
    </g>
    <g id="line2d_94">
     <g>
      <use style="fill:#d62728;stroke:#d62728;" x="419.522702" xlink:href="#ma0bd20a783" y="109.984062"/>
     </g>
    </g>
    <g id="text_33">
     <!-- 5 -->
     <g transform="translate(444.722702 114.884062)scale(0.14 -0.14)">
      <use xlink:href="#DejaVuSans-35"/>
     </g>
    </g>
   </g>
  </g>
  <g id="axes_3">
   <g id="patch_14">
    <path d="M 725.341452 238.84 
L 988.335 238.84 
L 988.335 13.32 
L 725.341452 13.32 
z
" style="fill:#ffffff;"/>
   </g>
   <g id="matplotlib.axis_5">
    <g id="xtick_13">
     <g id="line2d_95">
      <g>
       <use style="stroke:#000000;stroke-width:0.8;" x="725.341452" xlink:href="#medceae4d1b" y="238.84"/>
      </g>
     </g>
     <g id="text_34">
      <!-- 0 -->
      <g transform="translate(720.887702 256.477812)scale(0.14 -0.14)">
       <use xlink:href="#DejaVuSans-30"/>
      </g>
     </g>
    </g>
    <g id="xtick_14">
     <g id="line2d_96">
      <g>
       <use style="stroke:#000000;stroke-width:0.8;" x="777.940161" xlink:href="#medceae4d1b" y="238.84"/>
      </g>
     </g>
     <g id="text_35">
      <!-- 2 -->
      <g transform="translate(773.486411 256.477812)scale(0.14 -0.14)">
       <use xlink:href="#DejaVuSans-32"/>
      </g>
     </g>
    </g>
    <g id="xtick_15">
     <g id="line2d_97">
      <g>
       <use style="stroke:#000000;stroke-width:0.8;" x="830.538871" xlink:href="#medceae4d1b" y="238.84"/>
      </g>
     </g>
     <g id="text_36">
      <!-- 4 -->
      <g transform="translate(826.085121 256.477812)scale(0.14 -0.14)">
       <use xlink:href="#DejaVuSans-34"/>
      </g>
     </g>
    </g>
    <g id="xtick_16">
     <g id="line2d_98">
      <g>
       <use style="stroke:#000000;stroke-width:0.8;" x="883.137581" xlink:href="#medceae4d1b" y="238.84"/>
      </g>
     </g>
     <g id="text_37">
      <!-- 6 -->
      <g transform="translate(878.683831 256.477812)scale(0.14 -0.14)">
       <use xlink:href="#DejaVuSans-36"/>
      </g>
     </g>
    </g>
    <g id="xtick_17">
     <g id="line2d_99">
      <g>
       <use style="stroke:#000000;stroke-width:0.8;" x="935.73629" xlink:href="#medceae4d1b" y="238.84"/>
      </g>
     </g>
     <g id="text_38">
      <!-- 8 -->
      <g transform="translate(931.28254 256.477812)scale(0.14 -0.14)">
       <use xlink:href="#DejaVuSans-38"/>
      </g>
     </g>
    </g>
    <g id="xtick_18">
     <g id="line2d_100">
      <g>
       <use style="stroke:#000000;stroke-width:0.8;" x="988.335" xlink:href="#medceae4d1b" y="238.84"/>
      </g>
     </g>
     <g id="text_39">
      <!-- 10 -->
      <g transform="translate(979.4275 256.477812)scale(0.14 -0.14)">
       <use xlink:href="#DejaVuSans-31"/>
       <use x="63.623047" xlink:href="#DejaVuSans-30"/>
      </g>
     </g>
    </g>
    <g id="text_40">
     <!-- Cutoff (A) -->
     <g transform="translate(823.082913 274.027187)scale(0.14 -0.14)">
      <use xlink:href="#DejaVuSans-43"/>
      <use x="69.824219" xlink:href="#DejaVuSans-75"/>
      <use x="133.203125" xlink:href="#DejaVuSans-74"/>
      <use x="172.412109" xlink:href="#DejaVuSans-6f"/>
      <use x="233.59375" xlink:href="#DejaVuSans-66"/>
      <use x="268.798828" xlink:href="#DejaVuSans-66"/>
      <use x="304.003906" xlink:href="#DejaVuSans-20"/>
      <use x="335.791016" xlink:href="#DejaVuSans-28"/>
      <use x="374.804688" xlink:href="#DejaVuSans-41"/>
      <use x="443.212891" xlink:href="#DejaVuSans-29"/>
     </g>
    </g>
   </g>
   <g id="matplotlib.axis_6">
    <g id="ytick_59">
     <g id="line2d_101">
      <g>
       <use style="stroke:#000000;stroke-width:0.8;" x="725.341452" xlink:href="#mc82f4919a3" y="236.603065"/>
      </g>
     </g>
     <g id="text_41">
      <!-- $\mathdefault{10^{0}}$ -->
      <g transform="translate(693.701452 241.921971)scale(0.14 -0.14)">
       <use transform="translate(0 0.765625)" xlink:href="#DejaVuSans-31"/>
       <use transform="translate(63.623047 0.765625)" xlink:href="#DejaVuSans-30"/>
       <use transform="translate(128.203125 39.046875)scale(0.7)" xlink:href="#DejaVuSans-30"/>
      </g>
     </g>
    </g>
    <g id="ytick_60">
     <g id="line2d_102">
      <g>
       <use style="stroke:#000000;stroke-width:0.8;" x="725.341452" xlink:href="#mc82f4919a3" y="187.716311"/>
      </g>
     </g>
     <g id="text_42">
      <!-- $\mathdefault{10^{1}}$ -->
      <g transform="translate(693.701452 193.035218)scale(0.14 -0.14)">
       <use transform="translate(0 0.684375)" xlink:href="#DejaVuSans-31"/>
       <use transform="translate(63.623047 0.684375)" xlink:href="#DejaVuSans-30"/>
       <use transform="translate(128.203125 38.965625)scale(0.7)" xlink:href="#DejaVuSans-31"/>
      </g>
     </g>
    </g>
    <g id="ytick_61">
     <g id="line2d_103">
      <g>
       <use style="stroke:#000000;stroke-width:0.8;" x="725.341452" xlink:href="#mc82f4919a3" y="138.829558"/>
      </g>
     </g>
     <g id="text_43">
      <!-- $\mathdefault{10^{2}}$ -->
      <g transform="translate(693.701452 144.148464)scale(0.14 -0.14)">
       <use transform="translate(0 0.765625)" xlink:href="#DejaVuSans-31"/>
       <use transform="translate(63.623047 0.765625)" xlink:href="#DejaVuSans-30"/>
       <use transform="translate(128.203125 39.046875)scale(0.7)" xlink:href="#DejaVuSans-32"/>
      </g>
     </g>
    </g>
    <g id="ytick_62">
     <g id="line2d_104">
      <g>
       <use style="stroke:#000000;stroke-width:0.8;" x="725.341452" xlink:href="#mc82f4919a3" y="89.942804"/>
      </g>
     </g>
     <g id="text_44">
      <!-- $\mathdefault{10^{3}}$ -->
      <g transform="translate(693.701452 95.26171)scale(0.14 -0.14)">
       <use transform="translate(0 0.765625)" xlink:href="#DejaVuSans-31"/>
       <use transform="translate(63.623047 0.765625)" xlink:href="#DejaVuSans-30"/>
       <use transform="translate(128.203125 39.046875)scale(0.7)" xlink:href="#DejaVuSans-33"/>
      </g>
     </g>
    </g>
    <g id="ytick_63">
     <g id="line2d_105">
      <g>
       <use style="stroke:#000000;stroke-width:0.8;" x="725.341452" xlink:href="#mc82f4919a3" y="41.056051"/>
      </g>
     </g>
     <g id="text_45">
      <!-- $\mathdefault{10^{4}}$ -->
      <g transform="translate(693.701452 46.374957)scale(0.14 -0.14)">
       <use transform="translate(0 0.684375)" xlink:href="#DejaVuSans-31"/>
       <use transform="translate(63.623047 0.684375)" xlink:href="#DejaVuSans-30"/>
       <use transform="translate(128.203125 38.965625)scale(0.7)" xlink:href="#DejaVuSans-34"/>
      </g>
     </g>
    </g>
    <g id="ytick_64">
     <g id="line2d_106">
      <g>
       <use style="stroke:#000000;stroke-width:0.6;" x="725.341452" xlink:href="#m53ee959170" y="238.84"/>
      </g>
     </g>
    </g>
    <g id="ytick_65">
     <g id="line2d_107">
      <g>
       <use style="stroke:#000000;stroke-width:0.6;" x="725.341452" xlink:href="#m53ee959170" y="221.886686"/>
      </g>
     </g>
    </g>
    <g id="ytick_66">
     <g id="line2d_108">
      <g>
       <use style="stroke:#000000;stroke-width:0.6;" x="725.341452" xlink:href="#m53ee959170" y="213.278156"/>
      </g>
     </g>
    </g>
    <g id="ytick_67">
     <g id="line2d_109">
      <g>
       <use style="stroke:#000000;stroke-width:0.6;" x="725.341452" xlink:href="#m53ee959170" y="207.170306"/>
      </g>
     </g>
    </g>
    <g id="ytick_68">
     <g id="line2d_110">
      <g>
       <use style="stroke:#000000;stroke-width:0.6;" x="725.341452" xlink:href="#m53ee959170" y="202.43269"/>
      </g>
     </g>
    </g>
    <g id="ytick_69">
     <g id="line2d_111">
      <g>
       <use style="stroke:#000000;stroke-width:0.6;" x="725.341452" xlink:href="#m53ee959170" y="198.561776"/>
      </g>
     </g>
    </g>
    <g id="ytick_70">
     <g id="line2d_112">
      <g>
       <use style="stroke:#000000;stroke-width:0.6;" x="725.341452" xlink:href="#m53ee959170" y="195.288965"/>
      </g>
     </g>
    </g>
    <g id="ytick_71">
     <g id="line2d_113">
      <g>
       <use style="stroke:#000000;stroke-width:0.6;" x="725.341452" xlink:href="#m53ee959170" y="192.453927"/>
      </g>
     </g>
    </g>
    <g id="ytick_72">
     <g id="line2d_114">
      <g>
       <use style="stroke:#000000;stroke-width:0.6;" x="725.341452" xlink:href="#m53ee959170" y="189.953246"/>
      </g>
     </g>
    </g>
    <g id="ytick_73">
     <g id="line2d_115">
      <g>
       <use style="stroke:#000000;stroke-width:0.6;" x="725.341452" xlink:href="#m53ee959170" y="172.999932"/>
      </g>
     </g>
    </g>
    <g id="ytick_74">
     <g id="line2d_116">
      <g>
       <use style="stroke:#000000;stroke-width:0.6;" x="725.341452" xlink:href="#m53ee959170" y="164.391402"/>
      </g>
     </g>
    </g>
    <g id="ytick_75">
     <g id="line2d_117">
      <g>
       <use style="stroke:#000000;stroke-width:0.6;" x="725.341452" xlink:href="#m53ee959170" y="158.283553"/>
      </g>
     </g>
    </g>
    <g id="ytick_76">
     <g id="line2d_118">
      <g>
       <use style="stroke:#000000;stroke-width:0.6;" x="725.341452" xlink:href="#m53ee959170" y="153.545937"/>
      </g>
     </g>
    </g>
    <g id="ytick_77">
     <g id="line2d_119">
      <g>
       <use style="stroke:#000000;stroke-width:0.6;" x="725.341452" xlink:href="#m53ee959170" y="149.675023"/>
      </g>
     </g>
    </g>
    <g id="ytick_78">
     <g id="line2d_120">
      <g>
       <use style="stroke:#000000;stroke-width:0.6;" x="725.341452" xlink:href="#m53ee959170" y="146.402212"/>
      </g>
     </g>
    </g>
    <g id="ytick_79">
     <g id="line2d_121">
      <g>
       <use style="stroke:#000000;stroke-width:0.6;" x="725.341452" xlink:href="#m53ee959170" y="143.567174"/>
      </g>
     </g>
    </g>
    <g id="ytick_80">
     <g id="line2d_122">
      <g>
       <use style="stroke:#000000;stroke-width:0.6;" x="725.341452" xlink:href="#m53ee959170" y="141.066493"/>
      </g>
     </g>
    </g>
    <g id="ytick_81">
     <g id="line2d_123">
      <g>
       <use style="stroke:#000000;stroke-width:0.6;" x="725.341452" xlink:href="#m53ee959170" y="124.113178"/>
      </g>
     </g>
    </g>
    <g id="ytick_82">
     <g id="line2d_124">
      <g>
       <use style="stroke:#000000;stroke-width:0.6;" x="725.341452" xlink:href="#m53ee959170" y="115.504648"/>
      </g>
     </g>
    </g>
    <g id="ytick_83">
     <g id="line2d_125">
      <g>
       <use style="stroke:#000000;stroke-width:0.6;" x="725.341452" xlink:href="#m53ee959170" y="109.396799"/>
      </g>
     </g>
    </g>
    <g id="ytick_84">
     <g id="line2d_126">
      <g>
       <use style="stroke:#000000;stroke-width:0.6;" x="725.341452" xlink:href="#m53ee959170" y="104.659183"/>
      </g>
     </g>
    </g>
    <g id="ytick_85">
     <g id="line2d_127">
      <g>
       <use style="stroke:#000000;stroke-width:0.6;" x="725.341452" xlink:href="#m53ee959170" y="100.788269"/>
      </g>
     </g>
    </g>
    <g id="ytick_86">
     <g id="line2d_128">
      <g>
       <use style="stroke:#000000;stroke-width:0.6;" x="725.341452" xlink:href="#m53ee959170" y="97.515458"/>
      </g>
     </g>
    </g>
    <g id="ytick_87">
     <g id="line2d_129">
      <g>
       <use style="stroke:#000000;stroke-width:0.6;" x="725.341452" xlink:href="#m53ee959170" y="94.68042"/>
      </g>
     </g>
    </g>
    <g id="ytick_88">
     <g id="line2d_130">
      <g>
       <use style="stroke:#000000;stroke-width:0.6;" x="725.341452" xlink:href="#m53ee959170" y="92.179739"/>
      </g>
     </g>
    </g>
    <g id="ytick_89">
     <g id="line2d_131">
      <g>
       <use style="stroke:#000000;stroke-width:0.6;" x="725.341452" xlink:href="#m53ee959170" y="75.226425"/>
      </g>
     </g>
    </g>
    <g id="ytick_90">
     <g id="line2d_132">
      <g>
       <use style="stroke:#000000;stroke-width:0.6;" x="725.341452" xlink:href="#m53ee959170" y="66.617895"/>
      </g>
     </g>
    </g>
    <g id="ytick_91">
     <g id="line2d_133">
      <g>
       <use style="stroke:#000000;stroke-width:0.6;" x="725.341452" xlink:href="#m53ee959170" y="60.510046"/>
      </g>
     </g>
    </g>
    <g id="ytick_92">
     <g id="line2d_134">
      <g>
       <use style="stroke:#000000;stroke-width:0.6;" x="725.341452" xlink:href="#m53ee959170" y="55.77243"/>
      </g>
     </g>
    </g>
    <g id="ytick_93">
     <g id="line2d_135">
      <g>
       <use style="stroke:#000000;stroke-width:0.6;" x="725.341452" xlink:href="#m53ee959170" y="51.901516"/>
      </g>
     </g>
    </g>
    <g id="ytick_94">
     <g id="line2d_136">
      <g>
       <use style="stroke:#000000;stroke-width:0.6;" x="725.341452" xlink:href="#m53ee959170" y="48.628704"/>
      </g>
     </g>
    </g>
    <g id="ytick_95">
     <g id="line2d_137">
      <g>
       <use style="stroke:#000000;stroke-width:0.6;" x="725.341452" xlink:href="#m53ee959170" y="45.793666"/>
      </g>
     </g>
    </g>
    <g id="ytick_96">
     <g id="line2d_138">
      <g>
       <use style="stroke:#000000;stroke-width:0.6;" x="725.341452" xlink:href="#m53ee959170" y="43.292986"/>
      </g>
     </g>
    </g>
    <g id="ytick_97">
     <g id="line2d_139">
      <g>
       <use style="stroke:#000000;stroke-width:0.6;" x="725.341452" xlink:href="#m53ee959170" y="26.339671"/>
      </g>
     </g>
    </g>
    <g id="ytick_98">
     <g id="line2d_140">
      <g>
       <use style="stroke:#000000;stroke-width:0.6;" x="725.341452" xlink:href="#m53ee959170" y="17.731141"/>
      </g>
     </g>
    </g>
    <g id="text_46">
     <!-- Number of parameters -->
     <defs>
      <path d="M 18.109375 8.203125 
L 18.109375 -20.796875 
L 9.078125 -20.796875 
L 9.078125 54.6875 
L 18.109375 54.6875 
L 18.109375 46.390625 
Q 20.953125 51.265625 25.265625 53.625 
Q 29.59375 56 35.59375 56 
Q 45.5625 56 51.78125 48.09375 
Q 58.015625 40.1875 58.015625 27.296875 
Q 58.015625 14.40625 51.78125 6.484375 
Q 45.5625 -1.421875 35.59375 -1.421875 
Q 29.59375 -1.421875 25.265625 0.953125 
Q 20.953125 3.328125 18.109375 8.203125 
z
M 48.6875 27.296875 
Q 48.6875 37.203125 44.609375 42.84375 
Q 40.53125 48.484375 33.40625 48.484375 
Q 26.265625 48.484375 22.1875 42.84375 
Q 18.109375 37.203125 18.109375 27.296875 
Q 18.109375 17.390625 22.1875 11.75 
Q 26.265625 6.109375 33.40625 6.109375 
Q 40.53125 6.109375 44.609375 11.75 
Q 48.6875 17.390625 48.6875 27.296875 
z
" id="DejaVuSans-70"/>
      <path d="M 34.28125 27.484375 
Q 23.390625 27.484375 19.1875 25 
Q 14.984375 22.515625 14.984375 16.5 
Q 14.984375 11.71875 18.140625 8.90625 
Q 21.296875 6.109375 26.703125 6.109375 
Q 34.1875 6.109375 38.703125 11.40625 
Q 43.21875 16.703125 43.21875 25.484375 
L 43.21875 27.484375 
z
M 52.203125 31.203125 
L 52.203125 0 
L 43.21875 0 
L 43.21875 8.296875 
Q 40.140625 3.328125 35.546875 0.953125 
Q 30.953125 -1.421875 24.3125 -1.421875 
Q 15.921875 -1.421875 10.953125 3.296875 
Q 6 8.015625 6 15.921875 
Q 6 25.140625 12.171875 29.828125 
Q 18.359375 34.515625 30.609375 34.515625 
L 43.21875 34.515625 
L 43.21875 35.40625 
Q 43.21875 41.609375 39.140625 45 
Q 35.0625 48.390625 27.6875 48.390625 
Q 23 48.390625 18.546875 47.265625 
Q 14.109375 46.140625 10.015625 43.890625 
L 10.015625 52.203125 
Q 14.9375 54.109375 19.578125 55.046875 
Q 24.21875 56 28.609375 56 
Q 40.484375 56 46.34375 49.84375 
Q 52.203125 43.703125 52.203125 31.203125 
z
" id="DejaVuSans-61"/>
     </defs>
     <g transform="translate(686.789889 205.999219)rotate(-90)scale(0.14 -0.14)">
      <use xlink:href="#DejaVuSans-4e"/>
      <use x="74.804688" xlink:href="#DejaVuSans-75"/>
      <use x="138.183594" xlink:href="#DejaVuSans-6d"/>
      <use x="235.595703" xlink:href="#DejaVuSans-62"/>
      <use x="299.072266" xlink:href="#DejaVuSans-65"/>
      <use x="360.595703" xlink:href="#DejaVuSans-72"/>
      <use x="401.708984" xlink:href="#DejaVuSans-20"/>
      <use x="433.496094" xlink:href="#DejaVuSans-6f"/>
      <use x="494.677734" xlink:href="#DejaVuSans-66"/>
      <use x="529.882812" xlink:href="#DejaVuSans-20"/>
      <use x="561.669922" xlink:href="#DejaVuSans-70"/>
      <use x="625.146484" xlink:href="#DejaVuSans-61"/>
      <use x="686.425781" xlink:href="#DejaVuSans-72"/>
      <use x="727.539062" xlink:href="#DejaVuSans-61"/>
      <use x="788.818359" xlink:href="#DejaVuSans-6d"/>
      <use x="886.230469" xlink:href="#DejaVuSans-65"/>
      <use x="947.753906" xlink:href="#DejaVuSans-74"/>
      <use x="986.962891" xlink:href="#DejaVuSans-65"/>
      <use x="1048.486328" xlink:href="#DejaVuSans-72"/>
      <use x="1089.599609" xlink:href="#DejaVuSans-73"/>
     </g>
    </g>
   </g>
   <g id="line2d_141">
    <path clip-path="url(#p0747e5eb81)" d="M 725.341452 236.603065 
L 800.657083 207.170306 
L 831.853839 198.561776 
L 855.791951 187.716311 
L 875.972714 182.145991 
L 893.752323 176.450412 
L 909.826318 174.088953 
L 924.607882 168.262316 
L 938.366226 166.628337 
L 951.288345 161.734032 
L 963.51039 159.372573 
L 975.135141 157.247677 
L 986.242451 155.316232 
" style="fill:none;stroke:#1f77b4;stroke-linecap:square;stroke-width:2;"/>
    <g clip-path="url(#p0747e5eb81)">
     <use style="fill:#1f77b4;stroke:#1f77b4;" x="725.341452" xlink:href="#m47ec7066c9" y="236.603065"/>
     <use style="fill:#1f77b4;stroke:#1f77b4;" x="800.657083" xlink:href="#m47ec7066c9" y="207.170306"/>
     <use style="fill:#1f77b4;stroke:#1f77b4;" x="831.853839" xlink:href="#m47ec7066c9" y="198.561776"/>
     <use style="fill:#1f77b4;stroke:#1f77b4;" x="855.791951" xlink:href="#m47ec7066c9" y="187.716311"/>
     <use style="fill:#1f77b4;stroke:#1f77b4;" x="875.972714" xlink:href="#m47ec7066c9" y="182.145991"/>
     <use style="fill:#1f77b4;stroke:#1f77b4;" x="893.752323" xlink:href="#m47ec7066c9" y="176.450412"/>
     <use style="fill:#1f77b4;stroke:#1f77b4;" x="909.826318" xlink:href="#m47ec7066c9" y="174.088953"/>
     <use style="fill:#1f77b4;stroke:#1f77b4;" x="924.607882" xlink:href="#m47ec7066c9" y="168.262316"/>
     <use style="fill:#1f77b4;stroke:#1f77b4;" x="938.366226" xlink:href="#m47ec7066c9" y="166.628337"/>
     <use style="fill:#1f77b4;stroke:#1f77b4;" x="951.288345" xlink:href="#m47ec7066c9" y="161.734032"/>
     <use style="fill:#1f77b4;stroke:#1f77b4;" x="963.51039" xlink:href="#m47ec7066c9" y="159.372573"/>
     <use style="fill:#1f77b4;stroke:#1f77b4;" x="975.135141" xlink:href="#m47ec7066c9" y="157.247677"/>
     <use style="fill:#1f77b4;stroke:#1f77b4;" x="986.242451" xlink:href="#m47ec7066c9" y="155.316232"/>
    </g>
   </g>
   <g id="line2d_142">
    <path clip-path="url(#p0747e5eb81)" d="M 800.657083 183.845397 
L 831.853839 170.976378 
L 855.791951 140.599853 
L 875.972714 130.649956 
L 893.752323 115.861485 
L 909.826318 111.99057 
L 924.607882 93.822212 
" style="fill:none;stroke:#ff7f0e;stroke-linecap:square;stroke-width:2;"/>
    <g clip-path="url(#p0747e5eb81)">
     <use style="fill:#ff7f0e;stroke:#ff7f0e;" x="800.657083" xlink:href="#m4aa9c93311" y="183.845397"/>
     <use style="fill:#ff7f0e;stroke:#ff7f0e;" x="831.853839" xlink:href="#m4aa9c93311" y="170.976378"/>
     <use style="fill:#ff7f0e;stroke:#ff7f0e;" x="855.791951" xlink:href="#m4aa9c93311" y="140.599853"/>
     <use style="fill:#ff7f0e;stroke:#ff7f0e;" x="875.972714" xlink:href="#m4aa9c93311" y="130.649956"/>
     <use style="fill:#ff7f0e;stroke:#ff7f0e;" x="893.752323" xlink:href="#m4aa9c93311" y="115.861485"/>
     <use style="fill:#ff7f0e;stroke:#ff7f0e;" x="909.826318" xlink:href="#m4aa9c93311" y="111.99057"/>
     <use style="fill:#ff7f0e;stroke:#ff7f0e;" x="924.607882" xlink:href="#m4aa9c93311" y="93.822212"/>
    </g>
   </g>
   <g id="line2d_143">
    <path clip-path="url(#p0747e5eb81)" d="M 725.341452 221.886686 
L 800.657083 151.139828 
L 831.853839 130.79488 
L 855.791951 87.899958 
L 875.972714 72.810839 
L 893.752323 50.933148 
" style="fill:none;stroke:#2ca02c;stroke-linecap:square;stroke-width:2;"/>
    <g clip-path="url(#p0747e5eb81)">
     <use style="fill:#2ca02c;stroke:#2ca02c;" x="725.341452" xlink:href="#m5415677eb1" y="221.886686"/>
     <use style="fill:#2ca02c;stroke:#2ca02c;" x="800.657083" xlink:href="#m5415677eb1" y="151.139828"/>
     <use style="fill:#2ca02c;stroke:#2ca02c;" x="831.853839" xlink:href="#m5415677eb1" y="130.79488"/>
     <use style="fill:#2ca02c;stroke:#2ca02c;" x="855.791951" xlink:href="#m5415677eb1" y="87.899958"/>
     <use style="fill:#2ca02c;stroke:#2ca02c;" x="875.972714" xlink:href="#m5415677eb1" y="72.810839"/>
     <use style="fill:#2ca02c;stroke:#2ca02c;" x="893.752323" xlink:href="#m5415677eb1" y="50.933148"/>
    </g>
   </g>
   <g id="line2d_144">
    <path clip-path="url(#p0747e5eb81)" d="M 800.657083 128.456395 
L 831.853839 101.728819 
L 855.791951 44.327446 
L 875.972714 23.952527 
" style="fill:none;stroke:#d62728;stroke-linecap:square;stroke-width:2;"/>
    <g clip-path="url(#p0747e5eb81)">
     <use style="fill:#d62728;stroke:#d62728;" x="800.657083" xlink:href="#ma0bd20a783" y="128.456395"/>
     <use style="fill:#d62728;stroke:#d62728;" x="831.853839" xlink:href="#ma0bd20a783" y="101.728819"/>
     <use style="fill:#d62728;stroke:#d62728;" x="855.791951" xlink:href="#ma0bd20a783" y="44.327446"/>
     <use style="fill:#d62728;stroke:#d62728;" x="875.972714" xlink:href="#ma0bd20a783" y="23.952527"/>
    </g>
   </g>
   <g id="patch_15">
    <path d="M 725.341452 238.84 
L 725.341452 13.32 
" style="fill:none;stroke:#000000;stroke-linecap:square;stroke-linejoin:miter;stroke-width:0.8;"/>
   </g>
   <g id="patch_16">
    <path d="M 988.335 238.84 
L 988.335 13.32 
" style="fill:none;stroke:#000000;stroke-linecap:square;stroke-linejoin:miter;stroke-width:0.8;"/>
   </g>
   <g id="patch_17">
    <path d="M 725.341452 238.84 
L 988.335 238.84 
" style="fill:none;stroke:#000000;stroke-linecap:square;stroke-linejoin:miter;stroke-width:0.8;"/>
   </g>
   <g id="patch_18">
    <path d="M 725.341452 13.32 
L 988.335 13.32 
" style="fill:none;stroke:#000000;stroke-linecap:square;stroke-linejoin:miter;stroke-width:0.8;"/>
   </g>
   <g id="legend_3">
    <g id="patch_19">
     <path d="M 735.141452 123.395625 
L 788.848952 123.395625 
Q 791.648952 123.395625 791.648952 120.595625 
L 791.648952 23.12 
Q 791.648952 20.32 788.848952 20.32 
L 735.141452 20.32 
Q 732.341452 20.32 732.341452 23.12 
L 732.341452 120.595625 
Q 732.341452 123.395625 735.141452 123.395625 
z
" style="fill:#ffffff;opacity:0.8;stroke:#cccccc;stroke-linejoin:miter;"/>
    </g>
    <g id="text_47">
     <!-- Order -->
     <g transform="translate(747.698327 33.518438)scale(0.1 -0.1)">
      <use xlink:href="#DejaVuSans-4f"/>
      <use x="78.710938" xlink:href="#DejaVuSans-72"/>
      <use x="119.808594" xlink:href="#DejaVuSans-64"/>
      <use x="183.285156" xlink:href="#DejaVuSans-65"/>
      <use x="244.808594" xlink:href="#DejaVuSans-72"/>
     </g>
    </g>
    <g id="line2d_145">
     <path d="M 737.941452 48.335937 
L 765.941452 48.335937 
" style="fill:none;stroke:#1f77b4;stroke-linecap:square;stroke-width:2;"/>
    </g>
    <g id="line2d_146">
     <g>
      <use style="fill:#1f77b4;stroke:#1f77b4;" x="751.941452" xlink:href="#m47ec7066c9" y="48.335937"/>
     </g>
    </g>
    <g id="text_48">
     <!-- 2 -->
     <g transform="translate(777.141452 53.235937)scale(0.14 -0.14)">
      <use xlink:href="#DejaVuSans-32"/>
     </g>
    </g>
    <g id="line2d_147">
     <path d="M 737.941452 68.885312 
L 765.941452 68.885312 
" style="fill:none;stroke:#ff7f0e;stroke-linecap:square;stroke-width:2;"/>
    </g>
    <g id="line2d_148">
     <g>
      <use style="fill:#ff7f0e;stroke:#ff7f0e;" x="751.941452" xlink:href="#m4aa9c93311" y="68.885312"/>
     </g>
    </g>
    <g id="text_49">
     <!-- 3 -->
     <g transform="translate(777.141452 73.785312)scale(0.14 -0.14)">
      <use xlink:href="#DejaVuSans-33"/>
     </g>
    </g>
    <g id="line2d_149">
     <path d="M 737.941452 89.434687 
L 765.941452 89.434687 
" style="fill:none;stroke:#2ca02c;stroke-linecap:square;stroke-width:2;"/>
    </g>
    <g id="line2d_150">
     <g>
      <use style="fill:#2ca02c;stroke:#2ca02c;" x="751.941452" xlink:href="#m5415677eb1" y="89.434687"/>
     </g>
    </g>
    <g id="text_50">
     <!-- 4 -->
     <g transform="translate(777.141452 94.334687)scale(0.14 -0.14)">
      <use xlink:href="#DejaVuSans-34"/>
     </g>
    </g>
    <g id="line2d_151">
     <path d="M 737.941452 109.984062 
L 765.941452 109.984062 
" style="fill:none;stroke:#d62728;stroke-linecap:square;stroke-width:2;"/>
    </g>
    <g id="line2d_152">
     <g>
      <use style="fill:#d62728;stroke:#d62728;" x="751.941452" xlink:href="#ma0bd20a783" y="109.984062"/>
     </g>
    </g>
    <g id="text_51">
     <!-- 5 -->
     <g transform="translate(777.141452 114.884062)scale(0.14 -0.14)">
      <use xlink:href="#DejaVuSans-35"/>
     </g>
    </g>
   </g>
  </g>
 </g>
 <defs>
  <clipPath id="p9aa388ea7c">
   <rect height="225.52" width="262.993548" x="60.503952" y="13.32"/>
  </clipPath>
  <clipPath id="p9b1d9ff9d3">
   <rect height="225.52" width="262.993548" x="392.922702" y="13.32"/>
  </clipPath>
  <clipPath id="p0747e5eb81">
   <rect height="225.52" width="262.993548" x="725.341452" y="13.32"/>
  </clipPath>
 </defs>
</svg>
