<?xml version="1.0" encoding="utf-8" standalone="no"?>
<!DOCTYPE svg PUBLIC "-//W3C//DTD SVG 1.1//EN"
  "http://www.w3.org/Graphics/SVG/1.1/DTD/svg11.dtd">
<!-- Created with matplotlib (http://matplotlib.org/) -->
<svg height="345pt" version="1.1" viewBox="0 0 460 345" width="460pt" xmlns="http://www.w3.org/2000/svg" xmlns:xlink="http://www.w3.org/1999/xlink">
 <defs>
  <style type="text/css">
*{stroke-linecap:butt;stroke-linejoin:round;}
  </style>
 </defs>
 <g id="figure_1">
  <g id="patch_1">
   <path d="M 0 345.6 
L 460.8 345.6 
L 460.8 0 
L 0 0 
z
" style="fill:#ffffff;"/>
  </g>
  <g id="axes_1">
   <g id="patch_2">
    <path d="M 49.61 291.945 
L 446.085 291.945 
L 446.085 14.76 
L 49.61 14.76 
z
" style="fill:#ffffff;"/>
   </g>
   <g id="matplotlib.axis_1">
    <g id="xtick_1">
     <g id="line2d_1">
      <defs>
       <path d="M 0 0 
L 0 3.5 
" id="m9fa9e13c8c" style="stroke:#000000;stroke-width:0.8;"/>
      </defs>
      <g>
       <use style="stroke:#000000;stroke-width:0.8;" x="49.61" xlink:href="#m9fa9e13c8c" y="291.945"/>
      </g>
     </g>
     <g id="text_1">
      <!-- $\Gamma$ -->
      <defs>
       <path d="M 9.8125 0 
L 9.8125 72.90625 
L 55.171875 72.90625 
L 55.171875 64.59375 
L 19.671875 64.59375 
L 19.671875 0 
z
" id="DejaVuSans-393"/>
      </defs>
      <g transform="translate(45.69 309.582812)scale(0.14 -0.14)">
       <use transform="translate(0 0.09375)" xlink:href="#DejaVuSans-393"/>
      </g>
     </g>
    </g>
    <g id="xtick_2">
     <g id="line2d_2">
      <g>
       <use style="stroke:#000000;stroke-width:0.8;" x="170.477719" xlink:href="#m9fa9e13c8c" y="291.945"/>
      </g>
     </g>
     <g id="text_2">
      <!-- X -->
      <defs>
       <path d="M 6.296875 72.90625 
L 16.890625 72.90625 
L 35.015625 45.796875 
L 53.21875 72.90625 
L 63.8125 72.90625 
L 40.375 37.890625 
L 65.375 0 
L 54.78125 0 
L 34.28125 31 
L 13.625 0 
L 2.984375 0 
L 29 38.921875 
z
" id="DejaVuSans-58"/>
      </defs>
      <g transform="translate(165.682719 309.582812)scale(0.14 -0.14)">
       <use xlink:href="#DejaVuSans-58"/>
      </g>
     </g>
    </g>
    <g id="xtick_3">
     <g id="line2d_3">
      <g>
       <use style="stroke:#000000;stroke-width:0.8;" x="341.410485" xlink:href="#m9fa9e13c8c" y="291.945"/>
      </g>
     </g>
     <g id="text_3">
      <!-- $\Gamma$ -->
      <g transform="translate(337.490485 309.582812)scale(0.14 -0.14)">
       <use transform="translate(0 0.09375)" xlink:href="#DejaVuSans-393"/>
      </g>
     </g>
    </g>
    <g id="xtick_4">
     <g id="line2d_4">
      <g>
       <use style="stroke:#000000;stroke-width:0.8;" x="446.085" xlink:href="#m9fa9e13c8c" y="291.945"/>
      </g>
     </g>
     <g id="text_4">
      <!-- L -->
      <defs>
       <path d="M 9.8125 72.90625 
L 19.671875 72.90625 
L 19.671875 8.296875 
L 55.171875 8.296875 
L 55.171875 0 
L 9.8125 0 
z
" id="DejaVuSans-4c"/>
      </defs>
      <g transform="translate(442.184687 309.582812)scale(0.14 -0.14)">
       <use xlink:href="#DejaVuSans-4c"/>
      </g>
     </g>
    </g>
    <g id="text_5">
     <!-- Wave vector $\vec{q}$ -->
     <defs>
      <path d="M 3.328125 72.90625 
L 13.28125 72.90625 
L 28.609375 11.28125 
L 43.890625 72.90625 
L 54.984375 72.90625 
L 70.3125 11.28125 
L 85.59375 72.90625 
L 95.609375 72.90625 
L 77.296875 0 
L 64.890625 0 
L 49.515625 63.28125 
L 33.984375 0 
L 21.578125 0 
z
" id="DejaVuSans-57"/>
      <path d="M 34.28125 27.484375 
Q 23.390625 27.484375 19.1875 25 
Q 14.984375 22.515625 14.984375 16.5 
Q 14.984375 11.71875 18.140625 8.90625 
Q 21.296875 6.109375 26.703125 6.109375 
Q 34.1875 6.109375 38.703125 11.40625 
Q 43.21875 16.703125 43.21875 25.484375 
L 43.21875 27.484375 
z
M 52.203125 31.203125 
L 52.203125 0 
L 43.21875 0 
L 43.21875 8.296875 
Q 40.140625 3.328125 35.546875 0.953125 
Q 30.953125 -1.421875 24.3125 -1.421875 
Q 15.921875 -1.421875 10.953125 3.296875 
Q 6 8.015625 6 15.921875 
Q 6 25.140625 12.171875 29.828125 
Q 18.359375 34.515625 30.609375 34.515625 
L 43.21875 34.515625 
L 43.21875 35.40625 
Q 43.21875 41.609375 39.140625 45 
Q 35.0625 48.390625 27.6875 48.390625 
Q 23 48.390625 18.546875 47.265625 
Q 14.109375 46.140625 10.015625 43.890625 
L 10.015625 52.203125 
Q 14.9375 54.109375 19.578125 55.046875 
Q 24.21875 56 28.609375 56 
Q 40.484375 56 46.34375 49.84375 
Q 52.203125 43.703125 52.203125 31.203125 
z
" id="DejaVuSans-61"/>
      <path d="M 2.984375 54.6875 
L 12.5 54.6875 
L 29.59375 8.796875 
L 46.6875 54.6875 
L 56.203125 54.6875 
L 35.6875 0 
L 23.484375 0 
z
" id="DejaVuSans-76"/>
      <path d="M 56.203125 29.59375 
L 56.203125 25.203125 
L 14.890625 25.203125 
Q 15.484375 15.921875 20.484375 11.0625 
Q 25.484375 6.203125 34.421875 6.203125 
Q 39.59375 6.203125 44.453125 7.46875 
Q 49.3125 8.734375 54.109375 11.28125 
L 54.109375 2.78125 
Q 49.265625 0.734375 44.1875 -0.34375 
Q 39.109375 -1.421875 33.890625 -1.421875 
Q 20.796875 -1.421875 13.15625 6.1875 
Q 5.515625 13.8125 5.515625 26.8125 
Q 5.515625 40.234375 12.765625 48.109375 
Q 20.015625 56 32.328125 56 
Q 43.359375 56 49.78125 48.890625 
Q 56.203125 41.796875 56.203125 29.59375 
z
M 47.21875 32.234375 
Q 47.125 39.59375 43.09375 43.984375 
Q 39.0625 48.390625 32.421875 48.390625 
Q 24.90625 48.390625 20.390625 44.140625 
Q 15.875 39.890625 15.1875 32.171875 
z
" id="DejaVuSans-65"/>
      <path id="DejaVuSans-20"/>
      <path d="M 48.78125 52.59375 
L 48.78125 44.1875 
Q 44.96875 46.296875 41.140625 47.34375 
Q 37.3125 48.390625 33.40625 48.390625 
Q 24.65625 48.390625 19.8125 42.84375 
Q 14.984375 37.3125 14.984375 27.296875 
Q 14.984375 17.28125 19.8125 11.734375 
Q 24.65625 6.203125 33.40625 6.203125 
Q 37.3125 6.203125 41.140625 7.25 
Q 44.96875 8.296875 48.78125 10.40625 
L 48.78125 2.09375 
Q 45.015625 0.34375 40.984375 -0.53125 
Q 36.96875 -1.421875 32.421875 -1.421875 
Q 20.0625 -1.421875 12.78125 6.34375 
Q 5.515625 14.109375 5.515625 27.296875 
Q 5.515625 40.671875 12.859375 48.328125 
Q 20.21875 56 33.015625 56 
Q 37.15625 56 41.109375 55.140625 
Q 45.0625 54.296875 48.78125 52.59375 
z
" id="DejaVuSans-63"/>
      <path d="M 18.3125 70.21875 
L 18.3125 54.6875 
L 36.8125 54.6875 
L 36.8125 47.703125 
L 18.3125 47.703125 
L 18.3125 18.015625 
Q 18.3125 11.328125 20.140625 9.421875 
Q 21.96875 7.515625 27.59375 7.515625 
L 36.8125 7.515625 
L 36.8125 0 
L 27.59375 0 
Q 17.1875 0 13.234375 3.875 
Q 9.28125 7.765625 9.28125 18.015625 
L 9.28125 47.703125 
L 2.6875 47.703125 
L 2.6875 54.6875 
L 9.28125 54.6875 
L 9.28125 70.21875 
z
" id="DejaVuSans-74"/>
      <path d="M 30.609375 48.390625 
Q 23.390625 48.390625 19.1875 42.75 
Q 14.984375 37.109375 14.984375 27.296875 
Q 14.984375 17.484375 19.15625 11.84375 
Q 23.34375 6.203125 30.609375 6.203125 
Q 37.796875 6.203125 41.984375 11.859375 
Q 46.1875 17.53125 46.1875 27.296875 
Q 46.1875 37.015625 41.984375 42.703125 
Q 37.796875 48.390625 30.609375 48.390625 
z
M 30.609375 56 
Q 42.328125 56 49.015625 48.375 
Q 55.71875 40.765625 55.71875 27.296875 
Q 55.71875 13.875 49.015625 6.21875 
Q 42.328125 -1.421875 30.609375 -1.421875 
Q 18.84375 -1.421875 12.171875 6.21875 
Q 5.515625 13.875 5.515625 27.296875 
Q 5.515625 40.765625 12.171875 48.375 
Q 18.84375 56 30.609375 56 
z
" id="DejaVuSans-6f"/>
      <path d="M 41.109375 46.296875 
Q 39.59375 47.171875 37.8125 47.578125 
Q 36.03125 48 33.890625 48 
Q 26.265625 48 22.1875 43.046875 
Q 18.109375 38.09375 18.109375 28.8125 
L 18.109375 0 
L 9.078125 0 
L 9.078125 54.6875 
L 18.109375 54.6875 
L 18.109375 46.1875 
Q 20.953125 51.171875 25.484375 53.578125 
Q 30.03125 56 36.53125 56 
Q 37.453125 56 38.578125 55.875 
Q 39.703125 55.765625 41.0625 55.515625 
z
" id="DejaVuSans-72"/>
      <path d="M -47.015625 63.53125 
L -47.015625 68.40625 
L -10.84375 68.40625 
L -17.28125 75.984375 
L -11.140625 75.984375 
L -2.59375 65.96875 
L -11.140625 55.953125 
L -17.28125 55.953125 
L -10.84375 63.53125 
z
" id="DejaVuSans-20d7"/>
      <path d="M 41.703125 8.203125 
Q 38.09375 3.46875 33.171875 1.015625 
Q 28.265625 -1.421875 22.3125 -1.421875 
Q 14.015625 -1.421875 9.296875 4.171875 
Q 4.59375 9.765625 4.59375 19.578125 
Q 4.59375 27.484375 7.5 34.859375 
Q 10.40625 42.234375 15.828125 48.09375 
Q 19.34375 51.90625 23.90625 53.953125 
Q 28.46875 56 33.5 56 
Q 39.546875 56 43.453125 53.609375 
Q 47.359375 51.21875 49.125 46.390625 
L 50.6875 54.59375 
L 59.71875 54.59375 
L 45.125 -20.609375 
L 36.078125 -20.609375 
z
M 13.921875 20.90625 
Q 13.921875 13.671875 16.9375 9.890625 
Q 19.96875 6.109375 25.6875 6.109375 
Q 34.1875 6.109375 40.1875 14.234375 
Q 46.1875 22.359375 46.1875 33.984375 
Q 46.1875 41.015625 43.078125 44.75 
Q 39.984375 48.484375 34.1875 48.484375 
Q 29.9375 48.484375 26.3125 46.5 
Q 22.703125 44.53125 20.015625 40.71875 
Q 17.1875 36.71875 15.546875 31.34375 
Q 13.921875 25.984375 13.921875 20.90625 
z
" id="DejaVuSans-Oblique-71"/>
     </defs>
     <g transform="translate(197.0275 328.954375)scale(0.14 -0.14)">
      <use transform="translate(0 0.46875)" xlink:href="#DejaVuSans-57"/>
      <use transform="translate(98.876953 0.46875)" xlink:href="#DejaVuSans-61"/>
      <use transform="translate(160.15625 0.46875)" xlink:href="#DejaVuSans-76"/>
      <use transform="translate(219.335938 0.46875)" xlink:href="#DejaVuSans-65"/>
      <use transform="translate(280.859375 0.46875)" xlink:href="#DejaVuSans-20"/>
      <use transform="translate(312.646484 0.46875)" xlink:href="#DejaVuSans-76"/>
      <use transform="translate(371.826172 0.46875)" xlink:href="#DejaVuSans-65"/>
      <use transform="translate(433.349609 0.46875)" xlink:href="#DejaVuSans-63"/>
      <use transform="translate(488.330078 0.46875)" xlink:href="#DejaVuSans-74"/>
      <use transform="translate(527.539062 0.46875)" xlink:href="#DejaVuSans-6f"/>
      <use transform="translate(588.720703 0.46875)" xlink:href="#DejaVuSans-72"/>
      <use transform="translate(629.833984 0.46875)" xlink:href="#DejaVuSans-20"/>
      <use transform="translate(726.505859 13.015625)" xlink:href="#DejaVuSans-20d7"/>
      <use transform="translate(661.621094 0.46875)" xlink:href="#DejaVuSans-Oblique-71"/>
     </g>
    </g>
   </g>
   <g id="matplotlib.axis_2">
    <g id="ytick_1">
     <g id="line2d_5">
      <defs>
       <path d="M 0 0 
L -3.5 0 
" id="m3c87ecd89b" style="stroke:#000000;stroke-width:0.8;"/>
      </defs>
      <g>
       <use style="stroke:#000000;stroke-width:0.8;" x="49.61" xlink:href="#m3c87ecd89b" y="291.945"/>
      </g>
     </g>
     <g id="text_6">
      <!-- 0 -->
      <defs>
       <path d="M 31.78125 66.40625 
Q 24.171875 66.40625 20.328125 58.90625 
Q 16.5 51.421875 16.5 36.375 
Q 16.5 21.390625 20.328125 13.890625 
Q 24.171875 6.390625 31.78125 6.390625 
Q 39.453125 6.390625 43.28125 13.890625 
Q 47.125 21.390625 47.125 36.375 
Q 47.125 51.421875 43.28125 58.90625 
Q 39.453125 66.40625 31.78125 66.40625 
z
M 31.78125 74.21875 
Q 44.046875 74.21875 50.515625 64.515625 
Q 56.984375 54.828125 56.984375 36.375 
Q 56.984375 17.96875 50.515625 8.265625 
Q 44.046875 -1.421875 31.78125 -1.421875 
Q 19.53125 -1.421875 13.0625 8.265625 
Q 6.59375 17.96875 6.59375 36.375 
Q 6.59375 54.828125 13.0625 64.515625 
Q 19.53125 74.21875 31.78125 74.21875 
z
" id="DejaVuSans-30"/>
      </defs>
      <g transform="translate(36.2475 295.744219)scale(0.1 -0.1)">
       <use xlink:href="#DejaVuSans-30"/>
      </g>
     </g>
    </g>
    <g id="ytick_2">
     <g id="line2d_6">
      <g>
       <use style="stroke:#000000;stroke-width:0.8;" x="49.61" xlink:href="#m3c87ecd89b" y="236.508"/>
      </g>
     </g>
     <g id="text_7">
      <!-- 10 -->
      <defs>
       <path d="M 12.40625 8.296875 
L 28.515625 8.296875 
L 28.515625 63.921875 
L 10.984375 60.40625 
L 10.984375 69.390625 
L 28.421875 72.90625 
L 38.28125 72.90625 
L 38.28125 8.296875 
L 54.390625 8.296875 
L 54.390625 0 
L 12.40625 0 
z
" id="DejaVuSans-31"/>
      </defs>
      <g transform="translate(29.885 240.307219)scale(0.1 -0.1)">
       <use xlink:href="#DejaVuSans-31"/>
       <use x="63.623047" xlink:href="#DejaVuSans-30"/>
      </g>
     </g>
    </g>
    <g id="ytick_3">
     <g id="line2d_7">
      <g>
       <use style="stroke:#000000;stroke-width:0.8;" x="49.61" xlink:href="#m3c87ecd89b" y="181.071"/>
      </g>
     </g>
     <g id="text_8">
      <!-- 20 -->
      <defs>
       <path d="M 19.1875 8.296875 
L 53.609375 8.296875 
L 53.609375 0 
L 7.328125 0 
L 7.328125 8.296875 
Q 12.9375 14.109375 22.625 23.890625 
Q 32.328125 33.6875 34.8125 36.53125 
Q 39.546875 41.84375 41.421875 45.53125 
Q 43.3125 49.21875 43.3125 52.78125 
Q 43.3125 58.59375 39.234375 62.25 
Q 35.15625 65.921875 28.609375 65.921875 
Q 23.96875 65.921875 18.8125 64.3125 
Q 13.671875 62.703125 7.8125 59.421875 
L 7.8125 69.390625 
Q 13.765625 71.78125 18.9375 73 
Q 24.125 74.21875 28.421875 74.21875 
Q 39.75 74.21875 46.484375 68.546875 
Q 53.21875 62.890625 53.21875 53.421875 
Q 53.21875 48.921875 51.53125 44.890625 
Q 49.859375 40.875 45.40625 35.40625 
Q 44.1875 33.984375 37.640625 27.21875 
Q 31.109375 20.453125 19.1875 8.296875 
z
" id="DejaVuSans-32"/>
      </defs>
      <g transform="translate(29.885 184.870219)scale(0.1 -0.1)">
       <use xlink:href="#DejaVuSans-32"/>
       <use x="63.623047" xlink:href="#DejaVuSans-30"/>
      </g>
     </g>
    </g>
    <g id="ytick_4">
     <g id="line2d_8">
      <g>
       <use style="stroke:#000000;stroke-width:0.8;" x="49.61" xlink:href="#m3c87ecd89b" y="125.634"/>
      </g>
     </g>
     <g id="text_9">
      <!-- 30 -->
      <defs>
       <path d="M 40.578125 39.3125 
Q 47.65625 37.796875 51.625 33 
Q 55.609375 28.21875 55.609375 21.1875 
Q 55.609375 10.40625 48.1875 4.484375 
Q 40.765625 -1.421875 27.09375 -1.421875 
Q 22.515625 -1.421875 17.65625 -0.515625 
Q 12.796875 0.390625 7.625 2.203125 
L 7.625 11.71875 
Q 11.71875 9.328125 16.59375 8.109375 
Q 21.484375 6.890625 26.8125 6.890625 
Q 36.078125 6.890625 40.9375 10.546875 
Q 45.796875 14.203125 45.796875 21.1875 
Q 45.796875 27.640625 41.28125 31.265625 
Q 36.765625 34.90625 28.71875 34.90625 
L 20.21875 34.90625 
L 20.21875 43.015625 
L 29.109375 43.015625 
Q 36.375 43.015625 40.234375 45.921875 
Q 44.09375 48.828125 44.09375 54.296875 
Q 44.09375 59.90625 40.109375 62.90625 
Q 36.140625 65.921875 28.71875 65.921875 
Q 24.65625 65.921875 20.015625 65.03125 
Q 15.375 64.15625 9.8125 62.3125 
L 9.8125 71.09375 
Q 15.4375 72.65625 20.34375 73.4375 
Q 25.25 74.21875 29.59375 74.21875 
Q 40.828125 74.21875 47.359375 69.109375 
Q 53.90625 64.015625 53.90625 55.328125 
Q 53.90625 49.265625 50.4375 45.09375 
Q 46.96875 40.921875 40.578125 39.3125 
z
" id="DejaVuSans-33"/>
      </defs>
      <g transform="translate(29.885 129.433219)scale(0.1 -0.1)">
       <use xlink:href="#DejaVuSans-33"/>
       <use x="63.623047" xlink:href="#DejaVuSans-30"/>
      </g>
     </g>
    </g>
    <g id="ytick_5">
     <g id="line2d_9">
      <g>
       <use style="stroke:#000000;stroke-width:0.8;" x="49.61" xlink:href="#m3c87ecd89b" y="70.197"/>
      </g>
     </g>
     <g id="text_10">
      <!-- 40 -->
      <defs>
       <path d="M 37.796875 64.3125 
L 12.890625 25.390625 
L 37.796875 25.390625 
z
M 35.203125 72.90625 
L 47.609375 72.90625 
L 47.609375 25.390625 
L 58.015625 25.390625 
L 58.015625 17.1875 
L 47.609375 17.1875 
L 47.609375 0 
L 37.796875 0 
L 37.796875 17.1875 
L 4.890625 17.1875 
L 4.890625 26.703125 
z
" id="DejaVuSans-34"/>
      </defs>
      <g transform="translate(29.885 73.996219)scale(0.1 -0.1)">
       <use xlink:href="#DejaVuSans-34"/>
       <use x="63.623047" xlink:href="#DejaVuSans-30"/>
      </g>
     </g>
    </g>
    <g id="ytick_6">
     <g id="line2d_10">
      <g>
       <use style="stroke:#000000;stroke-width:0.8;" x="49.61" xlink:href="#m3c87ecd89b" y="14.76"/>
      </g>
     </g>
     <g id="text_11">
      <!-- 50 -->
      <defs>
       <path d="M 10.796875 72.90625 
L 49.515625 72.90625 
L 49.515625 64.59375 
L 19.828125 64.59375 
L 19.828125 46.734375 
Q 21.96875 47.46875 24.109375 47.828125 
Q 26.265625 48.1875 28.421875 48.1875 
Q 40.625 48.1875 47.75 41.5 
Q 54.890625 34.8125 54.890625 23.390625 
Q 54.890625 11.625 47.5625 5.09375 
Q 40.234375 -1.421875 26.90625 -1.421875 
Q 22.3125 -1.421875 17.546875 -0.640625 
Q 12.796875 0.140625 7.71875 1.703125 
L 7.71875 11.625 
Q 12.109375 9.234375 16.796875 8.0625 
Q 21.484375 6.890625 26.703125 6.890625 
Q 35.15625 6.890625 40.078125 11.328125 
Q 45.015625 15.765625 45.015625 23.390625 
Q 45.015625 31 40.078125 35.4375 
Q 35.15625 39.890625 26.703125 39.890625 
Q 22.75 39.890625 18.8125 39.015625 
Q 14.890625 38.140625 10.796875 36.28125 
z
" id="DejaVuSans-35"/>
      </defs>
      <g transform="translate(29.885 18.559219)scale(0.1 -0.1)">
       <use xlink:href="#DejaVuSans-35"/>
       <use x="63.623047" xlink:href="#DejaVuSans-30"/>
      </g>
     </g>
    </g>
    <g id="text_12">
     <!-- $\omega$ (meV) -->
     <defs>
      <path d="M 21.390625 -1.421875 
Q 1.125 -1.421875 6.78125 27.59375 
Q 8.984375 39.0625 19.625 54.6875 
L 29.296875 54.6875 
Q 19.234375 39.0625 17 27.34375 
Q 12.796875 6.203125 23.734375 6.203125 
Q 33.84375 6.203125 38.71875 32.46875 
L 47.015625 32.46875 
Q 41.703125 6.0625 51.8125 6.203125 
Q 62.703125 6.296875 66.796875 27.34375 
Q 69.046875 39.0625 65.140625 54.6875 
L 74.8125 54.6875 
Q 79.296875 39.0625 77.09375 27.59375 
Q 71.53125 -1.46875 51.21875 -1.421875 
Q 37.9375 -1.375 39.109375 13.1875 
Q 34.28125 -1.421875 21.390625 -1.421875 
z
" id="DejaVuSans-Oblique-3c9"/>
      <path d="M 31 75.875 
Q 24.46875 64.65625 21.28125 53.65625 
Q 18.109375 42.671875 18.109375 31.390625 
Q 18.109375 20.125 21.3125 9.0625 
Q 24.515625 -2 31 -13.1875 
L 23.1875 -13.1875 
Q 15.875 -1.703125 12.234375 9.375 
Q 8.59375 20.453125 8.59375 31.390625 
Q 8.59375 42.28125 12.203125 53.3125 
Q 15.828125 64.359375 23.1875 75.875 
z
" id="DejaVuSans-28"/>
      <path d="M 52 44.1875 
Q 55.375 50.25 60.0625 53.125 
Q 64.75 56 71.09375 56 
Q 79.640625 56 84.28125 50.015625 
Q 88.921875 44.046875 88.921875 33.015625 
L 88.921875 0 
L 79.890625 0 
L 79.890625 32.71875 
Q 79.890625 40.578125 77.09375 44.375 
Q 74.3125 48.1875 68.609375 48.1875 
Q 61.625 48.1875 57.5625 43.546875 
Q 53.515625 38.921875 53.515625 30.90625 
L 53.515625 0 
L 44.484375 0 
L 44.484375 32.71875 
Q 44.484375 40.625 41.703125 44.40625 
Q 38.921875 48.1875 33.109375 48.1875 
Q 26.21875 48.1875 22.15625 43.53125 
Q 18.109375 38.875 18.109375 30.90625 
L 18.109375 0 
L 9.078125 0 
L 9.078125 54.6875 
L 18.109375 54.6875 
L 18.109375 46.1875 
Q 21.1875 51.21875 25.484375 53.609375 
Q 29.78125 56 35.6875 56 
Q 41.65625 56 45.828125 52.96875 
Q 50 49.953125 52 44.1875 
z
" id="DejaVuSans-6d"/>
      <path d="M 28.609375 0 
L 0.78125 72.90625 
L 11.078125 72.90625 
L 34.1875 11.53125 
L 57.328125 72.90625 
L 67.578125 72.90625 
L 39.796875 0 
z
" id="DejaVuSans-56"/>
      <path d="M 8.015625 75.875 
L 15.828125 75.875 
Q 23.140625 64.359375 26.78125 53.3125 
Q 30.421875 42.28125 30.421875 31.390625 
Q 30.421875 20.453125 26.78125 9.375 
Q 23.140625 -1.703125 15.828125 -13.1875 
L 8.015625 -13.1875 
Q 14.5 -2 17.703125 9.0625 
Q 20.90625 20.125 20.90625 31.390625 
Q 20.90625 42.671875 17.703125 53.65625 
Q 14.5 64.65625 8.015625 75.875 
z
" id="DejaVuSans-29"/>
     </defs>
     <g transform="translate(22.973438 182.8225)rotate(-90)scale(0.14 -0.14)">
      <use transform="translate(0 0.125)" xlink:href="#DejaVuSans-Oblique-3c9"/>
      <use transform="translate(83.740234 0.125)" xlink:href="#DejaVuSans-20"/>
      <use transform="translate(115.527344 0.125)" xlink:href="#DejaVuSans-28"/>
      <use transform="translate(154.541016 0.125)" xlink:href="#DejaVuSans-6d"/>
      <use transform="translate(251.953125 0.125)" xlink:href="#DejaVuSans-65"/>
      <use transform="translate(313.476562 0.125)" xlink:href="#DejaVuSans-56"/>
      <use transform="translate(381.884766 0.125)" xlink:href="#DejaVuSans-29"/>
     </g>
    </g>
   </g>
   <g id="line2d_11">
    <path clip-path="url(#p897c0bfbea)" d="M 170.477719 291.945 
L 170.477719 14.76 
" style="fill:none;stroke:#000000;stroke-linecap:square;stroke-width:0.9;"/>
   </g>
   <g id="line2d_12">
    <path clip-path="url(#p897c0bfbea)" d="M 341.410485 291.945 
L 341.410485 14.76 
" style="fill:none;stroke:#000000;stroke-linecap:square;stroke-width:0.9;"/>
   </g>
   <g id="line2d_13">
    <path clip-path="url(#p897c0bfbea)" d="M 49.61 291.944997 
L 52.027354 286.913378 
L 54.444709 281.887526 
L 56.862063 276.87319 
L 59.279417 271.876071 
L 61.696772 266.901804 
L 64.114126 261.955937 
L 66.531481 257.043911 
L 68.948835 252.171047 
L 71.366189 247.342524 
L 73.783544 242.563374 
L 76.200898 237.838468 
L 78.618252 233.172512 
L 81.035607 228.570036 
L 83.452961 224.035401 
L 85.870316 219.572794 
L 88.28767 215.186232 
L 90.705024 210.879572 
L 93.122379 206.656513 
L 95.539733 202.520612 
L 97.957087 198.47529 
L 100.374442 194.523848 
L 102.791796 190.669478 
L 105.209151 186.915279 
L 107.626505 183.264267 
L 110.043859 179.719389 
L 112.461214 176.283539 
L 114.878568 172.95956 
L 117.295922 169.750262 
L 119.713277 166.658421 
L 122.130631 163.68679 
L 124.547985 160.838099 
L 126.96534 158.115053 
L 129.382694 155.520334 
L 131.800049 153.056591 
L 134.217403 150.726437 
L 136.634757 148.532435 
L 139.052112 146.477091 
L 141.469466 144.562838 
L 143.88682 142.79202 
L 146.304175 141.166879 
L 148.721529 139.689536 
L 151.138884 138.361976 
L 153.556238 137.186029 
L 155.973592 136.163354 
L 158.390947 135.295426 
L 160.808301 134.583518 
L 163.225655 134.02869 
L 165.64301 133.631779 
L 168.060364 133.39339 
L 170.477719 133.313886 
" style="fill:none;stroke:#440154;stroke-linecap:square;stroke-width:2;"/>
   </g>
   <g id="line2d_14">
    <path clip-path="url(#p897c0bfbea)" d="M 49.61 291.944997 
L 52.027354 286.913378 
L 54.444709 281.887526 
L 56.862063 276.87319 
L 59.279417 271.876071 
L 61.696772 266.901804 
L 64.114126 261.955937 
L 66.531481 257.043911 
L 68.948835 252.171047 
L 71.366189 247.342524 
L 73.783544 242.563374 
L 76.200898 237.838468 
L 78.618252 233.172512 
L 81.035607 228.570036 
L 83.452961 224.035401 
L 85.870316 219.572794 
L 88.28767 215.186232 
L 90.705024 210.879572 
L 93.122379 206.656513 
L 95.539733 202.520612 
L 97.957087 198.47529 
L 100.374442 194.523848 
L 102.791796 190.669478 
L 105.209151 186.915279 
L 107.626505 183.264267 
L 110.043859 179.719389 
L 112.461214 176.283539 
L 114.878568 172.95956 
L 117.295922 169.750262 
L 119.713277 166.658421 
L 122.130631 163.68679 
L 124.547985 160.838099 
L 126.96534 158.115053 
L 129.382694 155.520334 
L 131.800049 153.056591 
L 134.217403 150.726437 
L 136.634757 148.532435 
L 139.052112 146.477091 
L 141.469466 144.562838 
L 143.88682 142.79202 
L 146.304175 141.166879 
L 148.721529 139.689536 
L 151.138884 138.361976 
L 153.556238 137.186029 
L 155.973592 136.163354 
L 158.390947 135.295426 
L 160.808301 134.583518 
L 163.225655 134.02869 
L 165.64301 133.631779 
L 168.060364 133.39339 
L 170.477719 133.313886 
" style="fill:none;stroke:#440154;stroke-linecap:square;stroke-width:2;"/>
   </g>
   <g id="line2d_15">
    <path clip-path="url(#p897c0bfbea)" d="M 49.61 291.944996 
L 52.027354 285.709747 
L 54.444709 279.471751 
L 56.862063 273.22841 
L 59.279417 266.9774 
L 61.696772 260.716807 
L 64.114126 254.445245 
L 66.531481 248.161967 
L 68.948835 241.866958 
L 71.366189 235.561015 
L 73.783544 229.245802 
L 76.200898 222.923897 
L 78.618252 216.598814 
L 81.035607 210.275004 
L 83.452961 203.95785 
L 85.870316 197.653633 
L 88.28767 191.369492 
L 90.705024 185.113364 
L 93.122379 178.893923 
L 95.539733 172.720495 
L 97.957087 166.60298 
L 100.374442 160.551761 
L 102.791796 154.577606 
L 105.209151 148.691582 
L 107.626505 142.904951 
L 110.043859 137.229084 
L 112.461214 131.675366 
L 114.878568 126.255113 
L 117.295922 120.979489 
L 119.713277 115.859434 
L 122.130631 110.905595 
L 124.547985 106.128264 
L 126.96534 101.53733 
L 129.382694 97.142231 
L 131.800049 92.951916 
L 134.217403 88.97482 
L 136.634757 85.218839 
L 139.052112 81.691315 
L 141.469466 78.399031 
L 143.88682 75.348204 
L 146.304175 72.54449 
L 148.721529 69.99299 
L 151.138884 67.698258 
L 153.556238 65.664316 
L 155.973592 63.894665 
L 158.390947 62.392303 
L 160.808301 61.159736 
L 163.225655 60.198994 
L 165.64301 59.511641 
L 168.060364 59.098787 
L 170.477719 58.961096 
" style="fill:none;stroke:#440154;stroke-linecap:square;stroke-width:2;"/>
   </g>
   <g id="line2d_16">
    <path clip-path="url(#p897c0bfbea)" d="M 170.477719 133.313886 
L 173.896374 133.417133 
L 177.315029 133.726854 
L 180.733685 134.242964 
L 184.15234 134.96528 
L 187.570995 135.893451 
L 190.989651 137.026866 
L 194.408306 138.364556 
L 197.826961 139.90507 
L 201.245617 141.646357 
L 204.664272 143.585642 
L 208.082927 145.719317 
L 211.501583 148.042841 
L 214.920238 150.550663 
L 218.338893 153.236169 
L 221.757549 156.091661 
L 225.176204 159.108368 
L 228.594859 162.276494 
L 232.013515 165.585298 
L 235.43217 169.023214 
L 238.850825 172.577997 
L 242.269481 176.236912 
L 245.688136 179.986931 
L 249.106791 183.814963 
L 252.525447 187.70809 
L 255.944102 191.653807 
L 259.362757 195.640258 
L 262.781413 199.656461 
L 266.200068 203.692504 
L 269.618723 207.739711 
L 273.037379 211.790773 
L 276.456034 215.839821 
L 279.874689 219.88246 
L 283.293345 223.915739 
L 286.712 227.938072 
L 290.130655 231.949111 
L 293.549311 235.949572 
L 296.967966 239.941027 
L 300.386621 243.925674 
L 303.805277 247.906094 
L 307.223932 251.885011 
L 310.642587 255.865066 
L 314.061243 259.848618 
L 317.479898 263.83758 
L 320.898553 267.833298 
L 324.317209 271.836477 
L 327.735864 275.847157 
L 331.154519 279.864738 
L 334.573175 283.888051 
L 337.99183 287.91546 
L 341.410485 291.944997 
" style="fill:none;stroke:#440154;stroke-linecap:square;stroke-width:2;"/>
   </g>
   <g id="line2d_17">
    <path clip-path="url(#p897c0bfbea)" d="M 170.477719 133.313886 
L 173.896374 133.093147 
L 177.315029 132.43631 
L 180.733685 131.359299 
L 184.15234 129.887948 
L 187.570995 128.057035 
L 190.989651 125.909055 
L 194.408306 123.492865 
L 197.826961 120.862285 
L 201.245617 118.074734 
L 204.664272 115.189979 
L 208.082927 112.268992 
L 211.501583 109.37296 
L 214.920238 106.562414 
L 218.338893 103.89648 
L 221.757549 101.432229 
L 225.176204 99.224109 
L 228.594859 97.323445 
L 232.013515 97.047918 
L 235.43217 101.246005 
L 238.850825 105.630924 
L 242.269481 110.195509 
L 245.688136 114.932387 
L 249.106791 119.834069 
L 252.525447 124.893043 
L 255.944102 130.101865 
L 259.362757 135.453237 
L 262.781413 140.940086 
L 266.200068 146.555619 
L 269.618723 152.293371 
L 273.037379 158.147233 
L 276.456034 164.111456 
L 279.874689 170.180649 
L 283.293345 176.349746 
L 286.712 182.613965 
L 290.130655 188.968749 
L 293.549311 195.4097 
L 296.967966 201.932503 
L 300.386621 208.532843 
L 303.805277 215.206331 
L 307.223932 221.948429 
L 310.642587 228.75438 
L 314.061243 235.619156 
L 317.479898 242.537417 
L 320.898553 249.503487 
L 324.317209 256.511344 
L 327.735864 263.554628 
L 331.154519 270.626673 
L 334.573175 277.720541 
L 337.99183 284.829083 
L 341.410485 291.944997 
" style="fill:none;stroke:#440154;stroke-linecap:square;stroke-width:2;"/>
   </g>
   <g id="line2d_18">
    <path clip-path="url(#p897c0bfbea)" d="M 170.477719 58.961096 
L 173.896374 59.081205 
L 177.315029 59.441489 
L 180.733685 60.04182 
L 184.15234 60.881958 
L 187.570995 61.961521 
L 190.989651 63.279946 
L 194.408306 64.836431 
L 197.826961 66.629889 
L 201.245617 68.658879 
L 204.664272 70.921558 
L 208.082927 73.415623 
L 211.501583 76.138269 
L 214.920238 79.086152 
L 218.338893 82.255368 
L 221.757549 85.641447 
L 225.176204 89.239358 
L 228.594859 93.043535 
L 232.013515 95.778 
L 235.43217 94.631585 
L 238.850825 93.923724 
L 242.269481 93.689362 
L 245.688136 93.958634 
L 249.106791 94.756678 
L 252.525447 96.103514 
L 255.944102 98.013985 
L 259.362757 100.497753 
L 262.781413 103.559374 
L 266.200068 107.198428 
L 269.618723 111.40972 
L 273.037379 116.183539 
L 276.456034 121.505982 
L 279.874689 127.359315 
L 283.293345 133.722397 
L 286.712 140.571119 
L 290.130655 147.878885 
L 293.549311 155.617089 
L 296.967966 163.755607 
L 300.386621 172.263269 
L 303.805277 181.108309 
L 307.223932 190.258779 
L 310.642587 199.682916 
L 314.061243 209.349448 
L 317.479898 219.227842 
L 320.898553 229.288473 
L 324.317209 239.502729 
L 327.735864 249.84303 
L 331.154519 260.282784 
L 334.573175 270.796281 
L 337.99183 281.35852 
L 341.410485 291.944996 
" style="fill:none;stroke:#440154;stroke-linecap:square;stroke-width:2;"/>
   </g>
   <g id="line2d_19">
    <path clip-path="url(#p897c0bfbea)" d="M 341.410485 291.944997 
L 343.503976 288.722134 
L 345.597466 285.503809 
L 347.690956 282.294538 
L 349.784446 279.098769 
L 351.877937 275.920865 
L 353.971427 272.765071 
L 356.064917 269.63549 
L 358.158408 266.536061 
L 360.251898 263.470542 
L 362.345388 260.442488 
L 364.438879 257.455247 
L 366.532369 254.511943 
L 368.625859 251.615477 
L 370.719349 248.768526 
L 372.81284 245.973545 
L 374.90633 243.232776 
L 376.99982 240.548258 
L 379.093311 237.921842 
L 381.186801 235.355209 
L 383.280291 232.849889 
L 385.373781 230.407285 
L 387.467272 228.028693 
L 389.560762 225.715328 
L 391.654252 223.46835 
L 393.747743 221.288883 
L 395.841233 219.17804 
L 397.934723 217.136945 
L 400.028214 215.166748 
L 402.121704 213.268641 
L 404.215194 211.443874 
L 406.308684 209.693758 
L 408.402175 208.019672 
L 410.495665 206.423065 
L 412.589155 204.905453 
L 414.682646 203.468408 
L 416.776136 202.113555 
L 418.869626 200.842552 
L 420.963116 199.657075 
L 423.056607 198.558802 
L 425.150097 197.54939 
L 427.243587 196.630453 
L 429.337078 195.803538 
L 431.430568 195.070108 
L 433.524058 194.431513 
L 435.617549 193.88897 
L 437.711039 193.443549 
L 439.804529 193.096148 
L 441.898019 192.847483 
L 443.99151 192.698073 
L 446.085 192.648235 
" style="fill:none;stroke:#440154;stroke-linecap:square;stroke-width:2;"/>
   </g>
   <g id="line2d_20">
    <path clip-path="url(#p897c0bfbea)" d="M 341.410485 291.944997 
L 343.503976 288.722134 
L 345.597466 285.503809 
L 347.690956 282.294538 
L 349.784446 279.098769 
L 351.877937 275.920865 
L 353.971427 272.765071 
L 356.064917 269.63549 
L 358.158408 266.536061 
L 360.251898 263.470542 
L 362.345388 260.442488 
L 364.438879 257.455247 
L 366.532369 254.511943 
L 368.625859 251.615477 
L 370.719349 248.768526 
L 372.81284 245.973545 
L 374.90633 243.232776 
L 376.99982 240.548258 
L 379.093311 237.921842 
L 381.186801 235.355209 
L 383.280291 232.849889 
L 385.373781 230.407285 
L 387.467272 228.028693 
L 389.560762 225.715328 
L 391.654252 223.46835 
L 393.747743 221.288883 
L 395.841233 219.17804 
L 397.934723 217.136945 
L 400.028214 215.166748 
L 402.121704 213.268641 
L 404.215194 211.443874 
L 406.308684 209.693758 
L 408.402175 208.019672 
L 410.495665 206.423065 
L 412.589155 204.905453 
L 414.682646 203.468408 
L 416.776136 202.113555 
L 418.869626 200.842552 
L 420.963116 199.657075 
L 423.056607 198.558802 
L 425.150097 197.54939 
L 427.243587 196.630453 
L 429.337078 195.803538 
L 431.430568 195.070108 
L 433.524058 194.431513 
L 435.617549 193.88897 
L 437.711039 193.443549 
L 439.804529 193.096148 
L 441.898019 192.847483 
L 443.99151 192.698073 
L 446.085 192.648235 
" style="fill:none;stroke:#440154;stroke-linecap:square;stroke-width:2;"/>
   </g>
   <g id="line2d_21">
    <path clip-path="url(#p897c0bfbea)" d="M 341.410485 291.944996 
L 343.503976 285.136637 
L 345.597466 278.331594 
L 347.690956 271.533228 
L 349.784446 264.744971 
L 351.877937 257.970366 
L 353.971427 251.2131 
L 356.064917 244.477036 
L 358.158408 237.76624 
L 360.251898 231.085005 
L 362.345388 224.437872 
L 364.438879 217.829643 
L 366.532369 211.265394 
L 368.625859 204.750481 
L 370.719349 198.290542 
L 372.81284 191.891491 
L 374.90633 185.559512 
L 376.99982 179.301046 
L 379.093311 173.122774 
L 381.186801 167.031598 
L 383.280291 161.034616 
L 385.373781 155.139097 
L 387.467272 149.352448 
L 389.560762 143.682189 
L 391.654252 138.135914 
L 393.747743 132.721263 
L 395.841233 127.445882 
L 397.934723 122.317395 
L 400.028214 117.343362 
L 402.121704 112.531252 
L 404.215194 107.888409 
L 406.308684 103.422015 
L 408.402175 99.139069 
L 410.495665 95.046352 
L 412.589155 91.150403 
L 414.682646 87.457495 
L 416.776136 83.973612 
L 418.869626 80.704428 
L 420.963116 77.655291 
L 423.056607 74.831206 
L 425.150097 72.236818 
L 427.243587 69.876406 
L 429.337078 67.753863 
L 431.430568 65.872698 
L 433.524058 64.236019 
L 435.617549 62.846531 
L 437.711039 61.706532 
L 439.804529 60.817906 
L 441.898019 60.182123 
L 443.99151 59.800232 
L 446.085 59.672865 
" style="fill:none;stroke:#440154;stroke-linecap:square;stroke-width:2;"/>
   </g>
   <g id="line2d_22">
    <path clip-path="url(#p897c0bfbea)" d="M 0 0 
" style="fill:none;stroke:#440154;stroke-linecap:square;stroke-width:2;"/>
   </g>
   <g id="line2d_23">
    <path clip-path="url(#p897c0bfbea)" d="M 49.61 291.945002 
L 52.027354 287.006315 
L 54.444709 282.040517 
L 56.862063 277.021383 
L 59.279417 271.92442 
L 61.696772 266.727617 
L 64.114126 261.412072 
L 66.531481 256.117116 
L 68.948835 251.140844 
L 71.366189 246.22026 
L 73.783544 241.36165 
L 76.200898 236.571072 
L 78.618252 231.854345 
L 81.035607 227.217028 
L 83.452961 222.66441 
L 85.870316 218.201499 
L 88.28767 213.833011 
L 90.705024 209.563366 
L 93.122379 205.396686 
L 95.539733 201.336787 
L 97.957087 197.38719 
L 100.374442 193.551112 
L 102.791796 189.831483 
L 105.209151 186.230944 
L 107.626505 182.751861 
L 110.043859 179.396332 
L 112.461214 176.166204 
L 114.878568 173.063081 
L 117.295922 170.088339 
L 119.713277 167.243145 
L 122.130631 164.528468 
L 124.547985 161.9451 
L 126.96534 159.493668 
L 129.382694 157.174652 
L 131.800049 154.988403 
L 134.217403 152.935158 
L 136.634757 151.015053 
L 139.052112 149.228145 
L 141.469466 147.574419 
L 143.88682 146.053805 
L 146.304175 144.666193 
L 148.721529 143.411439 
L 151.138884 142.289384 
L 153.556238 141.299856 
L 155.973592 140.442684 
L 158.390947 139.717702 
L 160.808301 139.12476 
L 163.225655 138.663728 
L 165.64301 138.334499 
L 168.060364 138.136994 
L 170.477719 138.071164 
" style="fill:none;stroke:#21918c;stroke-linecap:square;stroke-width:2;"/>
   </g>
   <g id="line2d_24">
    <path clip-path="url(#p897c0bfbea)" d="M 49.61 291.944998 
L 52.027354 286.769234 
L 54.444709 281.600719 
L 56.862063 276.446676 
L 59.279417 271.31427 
L 61.696772 266.210584 
L 64.114126 261.142588 
L 66.531481 256.117116 
L 68.948835 251.140844 
L 71.366189 246.22026 
L 73.783544 241.36165 
L 76.200898 236.571072 
L 78.618252 231.854345 
L 81.035607 227.217028 
L 83.452961 222.66441 
L 85.870316 218.201499 
L 88.28767 213.833011 
L 90.705024 209.563366 
L 93.122379 205.396686 
L 95.539733 201.336787 
L 97.957087 197.38719 
L 100.374442 193.551112 
L 102.791796 189.831483 
L 105.209151 186.230944 
L 107.626505 182.751861 
L 110.043859 179.396332 
L 112.461214 176.166204 
L 114.878568 173.063081 
L 117.295922 170.088339 
L 119.713277 167.243145 
L 122.130631 164.528468 
L 124.547985 161.9451 
L 126.96534 159.493668 
L 129.382694 157.174652 
L 131.800049 154.988403 
L 134.217403 152.935158 
L 136.634757 151.015053 
L 139.052112 149.228145 
L 141.469466 147.574419 
L 143.88682 146.053805 
L 146.304175 144.666193 
L 148.721529 143.411439 
L 151.138884 142.289384 
L 153.556238 141.299856 
L 155.973592 140.442684 
L 158.390947 139.717702 
L 160.808301 139.12476 
L 163.225655 138.663728 
L 165.64301 138.334499 
L 168.060364 138.136994 
L 170.477719 138.071164 
" style="fill:none;stroke:#21918c;stroke-linecap:square;stroke-width:2;"/>
   </g>
   <g id="line2d_25">
    <path clip-path="url(#p897c0bfbea)" d="M 49.61 291.944997 
L 52.027354 286.769234 
L 54.444709 281.600719 
L 56.862063 276.446676 
L 59.279417 271.31427 
L 61.696772 266.210584 
L 64.114126 261.142588 
L 66.531481 255.962472 
L 68.948835 250.36742 
L 71.366189 244.619613 
L 73.783544 238.715877 
L 76.200898 232.657086 
L 78.618252 226.447978 
L 81.035607 220.096889 
L 83.452961 213.615437 
L 85.870316 207.018163 
L 88.28767 200.322141 
L 90.705024 193.546588 
L 93.122379 186.712465 
L 95.539733 179.842087 
L 97.957087 172.958745 
L 100.374442 166.086347 
L 102.791796 159.249075 
L 105.209151 152.47107 
L 107.626505 145.77614 
L 110.043859 139.187496 
L 112.461214 132.727513 
L 114.878568 126.417527 
L 117.295922 120.277653 
L 119.713277 114.326642 
L 122.130631 108.581764 
L 124.547985 103.058723 
L 126.96534 97.771602 
L 129.382694 92.73284 
L 131.800049 87.953239 
L 134.217403 83.441993 
L 136.634757 79.206751 
L 139.052112 75.253699 
L 141.469466 71.587665 
L 143.88682 68.212244 
L 146.304175 65.129932 
L 148.721529 62.342285 
L 151.138884 59.850065 
L 153.556238 57.653411 
L 155.973592 55.751991 
L 158.390947 54.145159 
L 160.808301 52.832096 
L 163.225655 51.811943 
L 165.64301 51.083908 
L 168.060364 50.647359 
L 170.477719 50.501889 
" style="fill:none;stroke:#21918c;stroke-linecap:square;stroke-width:2;"/>
   </g>
   <g id="line2d_26">
    <path clip-path="url(#p897c0bfbea)" d="M 170.477719 138.071164 
L 173.896374 138.201059 
L 177.315029 138.589441 
L 180.733685 139.232454 
L 184.15234 140.12382 
L 187.570995 141.255071 
L 190.989651 142.615845 
L 194.408306 144.194265 
L 197.826961 145.977356 
L 201.245617 147.951508 
L 204.664272 150.102953 
L 208.082927 152.418234 
L 211.501583 154.884649 
L 214.920238 157.490645 
L 218.338893 160.226139 
L 221.757549 163.082748 
L 225.176204 166.05392 
L 228.594859 169.134945 
L 232.013515 172.322856 
L 235.43217 175.616213 
L 238.850825 179.014791 
L 242.269481 182.519182 
L 245.688136 186.130327 
L 249.106791 189.849025 
L 252.525447 193.675414 
L 255.944102 197.608475 
L 259.362757 201.645576 
L 262.781413 205.782068 
L 266.200068 210.010969 
L 269.618723 214.322732 
L 273.037379 218.705123 
L 276.456034 223.143195 
L 279.874689 227.619385 
L 283.293345 232.113712 
L 286.712 236.604091 
L 290.130655 241.066747 
L 293.549311 245.476738 
L 296.967966 249.808577 
L 300.386621 254.03696 
L 303.805277 258.137587 
L 307.223932 262.08809 
L 310.642587 265.869062 
L 314.061243 269.465176 
L 317.479898 272.866366 
L 320.898553 276.069037 
L 324.317209 279.077191 
L 327.735864 281.903348 
L 331.154519 284.569044 
L 334.573175 287.104693 
L 337.99183 289.54859 
L 341.410485 291.945002 
" style="fill:none;stroke:#21918c;stroke-linecap:square;stroke-width:2;"/>
   </g>
   <g id="line2d_27">
    <path clip-path="url(#p897c0bfbea)" d="M 170.477719 138.071164 
L 173.896374 137.813197 
L 177.315029 137.045852 
L 180.733685 135.788504 
L 184.15234 134.072501 
L 187.570995 131.939874 
L 190.989651 129.441739 
L 194.408306 126.636556 
L 197.826961 123.58837 
L 201.245617 120.365145 
L 204.664272 117.037253 
L 208.082927 113.676137 
L 211.501583 110.353146 
L 214.920238 107.138537 
L 218.338893 104.100589 
L 221.757549 101.304838 
L 225.176204 98.813385 
L 228.594859 96.684269 
L 232.013515 100.337912 
L 235.43217 104.792975 
L 238.850825 109.31659 
L 242.269481 113.906102 
L 245.688136 118.561887 
L 249.106791 123.287 
L 252.525447 128.086743 
L 255.944102 132.96815 
L 259.362757 137.939451 
L 262.781413 143.00951 
L 266.200068 148.187289 
L 269.618723 153.481341 
L 273.037379 158.899374 
L 276.456034 164.447875 
L 279.874689 170.131831 
L 283.293345 175.954526 
L 286.712 181.917427 
L 290.130655 188.020155 
L 293.549311 194.260528 
L 296.967966 200.63466 
L 300.386621 207.137117 
L 303.805277 213.761102 
L 307.223932 220.498668 
L 310.642587 227.340934 
L 314.061243 234.2783 
L 317.479898 241.300646 
L 320.898553 248.397513 
L 324.317209 255.558245 
L 327.735864 262.772107 
L 331.154519 270.028368 
L 334.573175 277.31634 
L 337.99183 284.625406 
L 341.410485 291.944998 
" style="fill:none;stroke:#21918c;stroke-linecap:square;stroke-width:2;"/>
   </g>
   <g id="line2d_28">
    <path clip-path="url(#p897c0bfbea)" d="M 170.477719 50.501889 
L 173.896374 50.698098 
L 177.315029 51.28466 
L 180.733685 52.255438 
L 184.15234 53.600375 
L 187.570995 55.305746 
L 190.989651 57.354513 
L 194.408306 59.726752 
L 197.826961 62.400172 
L 201.245617 65.350689 
L 204.664272 68.553049 
L 208.082927 71.981492 
L 211.501583 75.610417 
L 214.920238 79.415047 
L 218.338893 83.372053 
L 221.757549 87.460135 
L 225.176204 91.660512 
L 228.594859 95.957324 
L 232.013515 94.970903 
L 235.43217 93.721562 
L 238.850825 92.978929 
L 242.269481 92.779696 
L 245.688136 93.154247 
L 249.106791 94.126404 
L 252.525447 95.713263 
L 255.944102 97.925128 
L 259.362757 100.765533 
L 262.781413 104.231374 
L 266.200068 108.31314 
L 269.618723 112.995255 
L 273.037379 118.256516 
L 276.456034 124.070629 
L 279.874689 130.406835 
L 283.293345 137.230616 
L 286.712 144.504459 
L 290.130655 152.188675 
L 293.549311 160.242248 
L 296.967966 168.623689 
L 300.386621 177.291879 
L 303.805277 186.206875 
L 307.223932 195.330647 
L 310.642587 204.62773 
L 314.061243 214.065757 
L 317.479898 223.615858 
L 320.898553 233.252899 
L 324.317209 242.955552 
L 327.735864 252.706188 
L 331.154519 262.49059 
L 334.573175 272.297509 
L 337.99183 282.118059 
L 341.410485 291.944997 
" style="fill:none;stroke:#21918c;stroke-linecap:square;stroke-width:2;"/>
   </g>
   <g id="line2d_29">
    <path clip-path="url(#p897c0bfbea)" d="M 341.410485 291.945002 
L 343.503976 289.094418 
L 345.597466 286.244422 
L 347.690956 283.395644 
L 349.784446 280.548816 
L 351.877937 277.704807 
L 353.971427 274.86467 
L 356.064917 272.029675 
L 358.158408 269.201339 
L 360.251898 266.381449 
L 362.345388 263.572077 
L 364.438879 260.775592 
L 366.532369 257.994654 
L 368.625859 255.232216 
L 370.719349 252.491501 
L 372.81284 249.775988 
L 374.90633 247.089381 
L 376.99982 244.435579 
L 379.093311 241.818638 
L 381.186801 239.24273 
L 383.280291 236.712103 
L 385.373781 234.231033 
L 387.467272 231.803782 
L 389.560762 229.434549 
L 391.654252 227.12743 
L 393.747743 224.886374 
L 395.841233 222.715146 
L 397.934723 220.617292 
L 400.028214 218.596108 
L 402.121704 216.654613 
L 404.215194 214.795531 
L 406.308684 213.021276 
L 408.402175 211.333942 
L 410.495665 209.7353 
L 412.589155 208.226805 
L 414.682646 206.8096 
L 416.776136 205.484535 
L 418.869626 204.252185 
L 420.963116 203.112872 
L 423.056607 202.066701 
L 425.150097 201.113581 
L 427.243587 200.25327 
L 429.337078 199.485402 
L 431.430568 198.809528 
L 433.524058 198.225151 
L 435.617549 197.731759 
L 437.711039 197.32886 
L 439.804529 197.016007 
L 441.898019 196.792826 
L 443.99151 196.659034 
L 446.085 196.614457 
" style="fill:none;stroke:#21918c;stroke-linecap:square;stroke-width:2;"/>
   </g>
   <g id="line2d_30">
    <path clip-path="url(#p897c0bfbea)" d="M 341.410485 291.944998 
L 343.503976 289.094418 
L 345.597466 286.244422 
L 347.690956 283.395644 
L 349.784446 280.548816 
L 351.877937 277.704807 
L 353.971427 274.86467 
L 356.064917 272.029675 
L 358.158408 269.201339 
L 360.251898 266.381449 
L 362.345388 263.572077 
L 364.438879 260.775592 
L 366.532369 257.994654 
L 368.625859 255.232216 
L 370.719349 252.491501 
L 372.81284 249.775988 
L 374.90633 247.089381 
L 376.99982 244.435579 
L 379.093311 241.818638 
L 381.186801 239.24273 
L 383.280291 236.712103 
L 385.373781 234.231033 
L 387.467272 231.803782 
L 389.560762 229.434549 
L 391.654252 227.12743 
L 393.747743 224.886374 
L 395.841233 222.715146 
L 397.934723 220.617292 
L 400.028214 218.596108 
L 402.121704 216.654613 
L 404.215194 214.795531 
L 406.308684 213.021276 
L 408.402175 211.333942 
L 410.495665 209.7353 
L 412.589155 208.226805 
L 414.682646 206.8096 
L 416.776136 205.484535 
L 418.869626 204.252185 
L 420.963116 203.112872 
L 423.056607 202.066701 
L 425.150097 201.113581 
L 427.243587 200.25327 
L 429.337078 199.485402 
L 431.430568 198.809528 
L 433.524058 198.225151 
L 435.617549 197.731759 
L 437.711039 197.32886 
L 439.804529 197.016007 
L 441.898019 196.792826 
L 443.99151 196.659034 
L 446.085 196.614457 
" style="fill:none;stroke:#21918c;stroke-linecap:square;stroke-width:2;"/>
   </g>
   <g id="line2d_31">
    <path clip-path="url(#p897c0bfbea)" d="M 341.410485 291.944997 
L 343.503976 285.448531 
L 345.597466 278.953937 
L 347.690956 272.463126 
L 349.784446 265.978078 
L 351.877937 259.500872 
L 353.971427 253.033724 
L 356.064917 246.579019 
L 358.158408 240.139338 
L 360.251898 233.717491 
L 362.345388 227.316543 
L 364.438879 220.939842 
L 366.532369 214.591036 
L 368.625859 208.2741 
L 370.719349 201.993352 
L 372.81284 195.753466 
L 374.90633 189.559485 
L 376.99982 183.416826 
L 379.093311 177.331289 
L 381.186801 171.309052 
L 383.280291 165.356669 
L 385.373781 159.481061 
L 387.467272 153.689504 
L 389.560762 147.989611 
L 391.654252 142.389314 
L 393.747743 136.89683 
L 395.841233 131.520644 
L 397.934723 126.269463 
L 400.028214 121.152186 
L 402.121704 116.177865 
L 404.215194 111.355651 
L 406.308684 106.694761 
L 408.402175 102.204418 
L 410.495665 97.893806 
L 412.589155 93.772014 
L 414.682646 89.847986 
L 416.776136 86.130465 
L 418.869626 82.627939 
L 420.963116 79.348587 
L 423.056607 76.300227 
L 425.150097 73.490266 
L 427.243587 70.925649 
L 429.337078 68.612814 
L 431.430568 66.557646 
L 433.524058 64.765441 
L 435.617549 63.240862 
L 437.711039 61.987917 
L 439.804529 61.009919 
L 441.898019 60.309474 
L 443.99151 59.888453 
L 446.085 59.747988 
" style="fill:none;stroke:#21918c;stroke-linecap:square;stroke-width:2;"/>
   </g>
   <g id="line2d_32">
    <path clip-path="url(#p897c0bfbea)" d="M 0 0 
" style="fill:none;stroke:#21918c;stroke-linecap:square;stroke-width:2;"/>
   </g>
   <g id="line2d_33">
    <path clip-path="url(#p897c0bfbea)" d="M 49.61 291.945003 
L 52.027354 287.154178 
L 54.444709 282.363496 
L 56.862063 277.573206 
L 59.279417 272.783788 
L 61.696772 267.996051 
L 64.114126 263.211228 
L 66.531481 258.431057 
L 68.948835 253.657853 
L 71.366189 248.894553 
L 73.783544 244.144752 
L 76.200898 239.41272 
L 78.618252 234.703394 
L 81.035607 230.022365 
L 83.452961 225.375832 
L 85.870316 220.770555 
L 88.28767 216.213784 
L 90.705024 211.713183 
L 93.122379 207.276741 
L 95.539733 202.912671 
L 97.957087 198.629314 
L 100.374442 194.435031 
L 102.791796 190.338097 
L 105.209151 186.3466 
L 107.626505 182.468335 
L 110.043859 178.710715 
L 112.461214 175.080679 
L 114.878568 171.584616 
L 117.295922 168.228297 
L 119.713277 165.016821 
L 122.130631 161.95457 
L 124.547985 159.045179 
L 126.96534 156.291528 
L 129.382694 153.695735 
L 131.800049 151.25918 
L 134.217403 148.982526 
L 136.634757 146.865769 
L 139.052112 144.908294 
L 141.469466 143.108943 
L 143.88682 141.466095 
L 146.304175 139.977752 
L 148.721529 138.641638 
L 151.138884 137.455293 
L 153.556238 136.416174 
L 155.973592 135.521757 
L 158.390947 134.769629 
L 160.808301 134.157579 
L 163.225655 133.683681 
L 165.64301 133.346358 
L 168.060364 133.144442 
L 170.477719 133.077218 
" style="fill:none;stroke:#fde725;stroke-linecap:square;stroke-width:2;"/>
   </g>
   <g id="line2d_34">
    <path clip-path="url(#p897c0bfbea)" d="M 49.61 291.945 
L 52.027354 287.154178 
L 54.444709 282.363496 
L 56.862063 277.573206 
L 59.279417 272.783788 
L 61.696772 267.996051 
L 64.114126 263.211228 
L 66.531481 258.431057 
L 68.948835 253.657853 
L 71.366189 248.894553 
L 73.783544 244.144752 
L 76.200898 239.41272 
L 78.618252 234.703394 
L 81.035607 230.022365 
L 83.452961 225.375832 
L 85.870316 220.770555 
L 88.28767 216.213784 
L 90.705024 211.713183 
L 93.122379 207.276741 
L 95.539733 202.912671 
L 97.957087 198.629314 
L 100.374442 194.435031 
L 102.791796 190.338097 
L 105.209151 186.3466 
L 107.626505 182.468335 
L 110.043859 178.710715 
L 112.461214 175.080679 
L 114.878568 171.584616 
L 117.295922 168.228297 
L 119.713277 165.016821 
L 122.130631 161.95457 
L 124.547985 159.045179 
L 126.96534 156.291528 
L 129.382694 153.695735 
L 131.800049 151.25918 
L 134.217403 148.982526 
L 136.634757 146.865769 
L 139.052112 144.908294 
L 141.469466 143.108943 
L 143.88682 141.466095 
L 146.304175 139.977752 
L 148.721529 138.641638 
L 151.138884 137.455293 
L 153.556238 136.416174 
L 155.973592 135.521757 
L 158.390947 134.769629 
L 160.808301 134.157579 
L 163.225655 133.683681 
L 165.64301 133.346358 
L 168.060364 133.144442 
L 170.477719 133.077218 
" style="fill:none;stroke:#fde725;stroke-linecap:square;stroke-width:2;"/>
   </g>
   <g id="line2d_35">
    <path clip-path="url(#p897c0bfbea)" d="M 49.61 291.944998 
L 52.027354 285.528631 
L 54.444709 279.122963 
L 56.862063 272.738484 
L 59.279417 266.385269 
L 61.696772 260.072782 
L 64.114126 253.809697 
L 66.531481 247.60374 
L 68.948835 241.461553 
L 71.366189 235.38859 
L 73.783544 229.389046 
L 76.200898 223.46582 
L 78.618252 217.620518 
L 81.035607 211.853497 
L 83.452961 206.163951 
L 85.870316 200.550031 
L 88.28767 195.009013 
L 90.705024 189.537493 
L 93.122379 184.131612 
L 95.539733 178.787311 
L 97.957087 173.500595 
L 100.374442 168.267809 
L 102.791796 163.08591 
L 105.209151 157.952732 
L 107.626505 152.867227 
L 110.043859 147.829682 
L 112.461214 142.841898 
L 114.878568 137.907329 
L 117.295922 133.03117 
L 119.713277 128.220408 
L 122.130631 123.483812 
L 124.547985 118.831879 
L 126.96534 114.276734 
L 129.382694 109.831989 
L 131.800049 105.512564 
L 134.217403 101.334475 
L 136.634757 97.314599 
L 139.052112 93.470418 
L 141.469466 89.819749 
L 143.88682 86.380472 
L 146.304175 83.170254 
L 148.721529 80.206274 
L 151.138884 77.504963 
L 153.556238 75.081753 
L 155.973592 72.950849 
L 158.390947 71.125011 
L 160.808301 69.615368 
L 163.225655 68.431256 
L 165.64301 67.580079 
L 168.060364 67.067204 
L 170.477719 66.895883 
" style="fill:none;stroke:#fde725;stroke-linecap:square;stroke-width:2;"/>
   </g>
   <g id="line2d_36">
    <path clip-path="url(#p897c0bfbea)" d="M 170.477719 133.077218 
L 173.896374 133.215059 
L 177.315029 133.626979 
L 180.733685 134.308234 
L 184.15234 135.251104 
L 187.570995 136.445179 
L 190.989651 137.877733 
L 194.408306 139.53419 
L 197.826961 141.398662 
L 201.245617 143.45453 
L 204.664272 145.685051 
L 208.082927 148.073968 
L 211.501583 150.606084 
L 214.920238 153.26778 
L 218.338893 156.047438 
L 221.757549 158.935763 
L 225.176204 161.925958 
L 228.594859 165.013759 
L 232.013515 168.197323 
L 235.43217 171.476961 
L 238.850825 174.854746 
L 242.269481 178.334003 
L 245.688136 181.918724 
L 249.106791 185.612928 
L 252.525447 189.420011 
L 255.944102 193.342112 
L 259.362757 197.379529 
L 262.781413 201.530218 
L 266.200068 205.789384 
L 269.618723 210.149192 
L 273.037379 214.598604 
L 276.456034 219.12334 
L 279.874689 223.705984 
L 283.293345 228.326208 
L 286.712 232.961131 
L 290.130655 237.585801 
L 293.549311 242.173787 
L 296.967966 246.697889 
L 300.386621 251.130956 
L 303.805277 255.446809 
L 307.223932 259.621258 
L 310.642587 263.633226 
L 314.061243 267.465932 
L 317.479898 271.108131 
L 320.898553 274.555334 
L 324.317209 277.810913 
L 327.735864 280.886948 
L 331.154519 283.804629 
L 334.573175 286.594005 
L 337.99183 289.292905 
L 341.410485 291.945003 
" style="fill:none;stroke:#fde725;stroke-linecap:square;stroke-width:2;"/>
   </g>
   <g id="line2d_37">
    <path clip-path="url(#p897c0bfbea)" d="M 170.477719 133.077218 
L 173.896374 132.844238 
L 177.315029 132.150705 
L 180.733685 131.012624 
L 184.15234 129.455998 
L 187.570995 127.515883 
L 190.989651 125.235215 
L 194.408306 122.663495 
L 197.826961 119.855431 
L 201.245617 116.869625 
L 204.664272 113.767335 
L 208.082927 110.611362 
L 211.501583 107.465051 
L 214.920238 104.391417 
L 218.338893 101.452365 
L 221.757549 98.708008 
L 225.176204 96.216047 
L 228.594859 94.031221 
L 232.013515 92.204808 
L 235.43217 94.940273 
L 238.850825 100.442446 
L 242.269481 106.331025 
L 245.688136 112.55288 
L 249.106791 119.04961 
L 252.525447 125.759427 
L 255.944102 132.619187 
L 259.362757 139.566532 
L 262.781413 146.542093 
L 266.200068 153.491664 
L 269.618723 160.368258 
L 273.037379 167.133942 
L 276.456034 173.761293 
L 279.874689 180.23437 
L 283.293345 186.549063 
L 286.712 192.712752 
L 290.130655 198.743236 
L 293.549311 204.666999 
L 296.967966 210.51693 
L 300.386621 216.329678 
L 303.805277 222.142885 
L 307.223932 227.992504 
L 310.642587 233.910423 
L 314.061243 239.922533 
L 317.479898 246.047336 
L 320.898553 252.295139 
L 324.317209 258.667795 
L 327.735864 265.158972 
L 331.154519 271.754861 
L 334.573175 278.435247 
L 337.99183 285.174871 
L 341.410485 291.945 
" style="fill:none;stroke:#fde725;stroke-linecap:square;stroke-width:2;"/>
   </g>
   <g id="line2d_38">
    <path clip-path="url(#p897c0bfbea)" d="M 170.477719 66.895883 
L 173.896374 66.845805 
L 177.315029 66.703294 
L 180.733685 66.491052 
L 184.15234 66.245418 
L 187.570995 66.014273 
L 190.989651 65.854379 
L 194.408306 65.828373 
L 197.826961 66.00164 
L 201.245617 66.439253 
L 204.664272 67.203143 
L 208.082927 68.349604 
L 211.501583 69.927211 
L 214.920238 71.975171 
L 218.338893 74.522121 
L 221.757549 77.585359 
L 225.176204 81.17048 
L 228.594859 85.271392 
L 232.013515 89.870676 
L 235.43217 90.784173 
L 238.850825 89.812368 
L 242.269481 89.327788 
L 245.688136 89.36387 
L 249.106791 89.948864 
L 252.525447 91.105661 
L 255.944102 92.851689 
L 259.362757 95.198886 
L 262.781413 98.153737 
L 266.200068 101.717397 
L 269.618723 105.885871 
L 273.037379 110.650281 
L 276.456034 115.997181 
L 279.874689 121.90894 
L 283.293345 128.364173 
L 286.712 135.338207 
L 290.130655 142.803578 
L 293.549311 150.730547 
L 296.967966 159.087614 
L 300.386621 167.842024 
L 303.805277 176.960248 
L 307.223932 186.408427 
L 310.642587 196.152768 
L 314.061243 206.159882 
L 317.479898 216.397047 
L 320.898553 226.832407 
L 324.317209 237.435086 
L 327.735864 248.175225 
L 331.154519 259.023948 
L 334.573175 269.953257 
L 337.99183 280.935868 
L 341.410485 291.944998 
" style="fill:none;stroke:#fde725;stroke-linecap:square;stroke-width:2;"/>
   </g>
   <g id="line2d_39">
    <path clip-path="url(#p897c0bfbea)" d="M 341.410485 291.945003 
L 343.503976 289.209425 
L 345.597466 286.476692 
L 347.690956 283.749611 
L 349.784446 281.030924 
L 351.877937 278.323276 
L 353.971427 275.62919 
L 356.064917 272.951038 
L 358.158408 270.291028 
L 360.251898 267.651184 
L 362.345388 265.033343 
L 364.438879 262.439153 
L 366.532369 259.870074 
L 368.625859 257.327394 
L 370.719349 254.812245 
L 372.81284 252.325626 
L 374.90633 249.868434 
L 376.99982 247.441497 
L 379.093311 245.045612 
L 381.186801 242.681586 
L 383.280291 240.350277 
L 385.373781 238.052637 
L 387.467272 235.789755 
L 389.560762 233.562893 
L 391.654252 231.373523 
L 393.747743 229.22336 
L 395.841233 227.114381 
L 397.934723 225.04885 
L 400.028214 223.029328 
L 402.121704 221.058671 
L 404.215194 219.140033 
L 406.308684 217.276848 
L 408.402175 215.472815 
L 410.495665 213.731865 
L 412.589155 212.058131 
L 414.682646 210.455906 
L 416.776136 208.929598 
L 418.869626 207.483681 
L 420.963116 206.122643 
L 423.056607 204.850928 
L 425.150097 203.672885 
L 427.243587 202.592708 
L 429.337078 201.614385 
L 431.430568 200.741642 
L 433.524058 199.977896 
L 435.617549 199.326208 
L 437.711039 198.789242 
L 439.804529 198.369228 
L 441.898019 198.067936 
L 443.99151 197.886643 
L 446.085 197.826126 
" style="fill:none;stroke:#fde725;stroke-linecap:square;stroke-width:2;"/>
   </g>
   <g id="line2d_40">
    <path clip-path="url(#p897c0bfbea)" d="M 341.410485 291.945 
L 343.503976 289.209425 
L 345.597466 286.476692 
L 347.690956 283.749611 
L 349.784446 281.030924 
L 351.877937 278.323276 
L 353.971427 275.62919 
L 356.064917 272.951038 
L 358.158408 270.291028 
L 360.251898 267.651184 
L 362.345388 265.033343 
L 364.438879 262.439153 
L 366.532369 259.870074 
L 368.625859 257.327394 
L 370.719349 254.812245 
L 372.81284 252.325626 
L 374.90633 249.868434 
L 376.99982 247.441497 
L 379.093311 245.045612 
L 381.186801 242.681586 
L 383.280291 240.350277 
L 385.373781 238.052637 
L 387.467272 235.789755 
L 389.560762 233.562893 
L 391.654252 231.373523 
L 393.747743 229.22336 
L 395.841233 227.114381 
L 397.934723 225.04885 
L 400.028214 223.029328 
L 402.121704 221.058671 
L 404.215194 219.140033 
L 406.308684 217.276848 
L 408.402175 215.472815 
L 410.495665 213.731865 
L 412.589155 212.058131 
L 414.682646 210.455906 
L 416.776136 208.929598 
L 418.869626 207.483681 
L 420.963116 206.122643 
L 423.056607 204.850928 
L 425.150097 203.672885 
L 427.243587 202.592708 
L 429.337078 201.614385 
L 431.430568 200.741642 
L 433.524058 199.977896 
L 435.617549 199.326208 
L 437.711039 198.789242 
L 439.804529 198.369228 
L 441.898019 198.067936 
L 443.99151 197.886643 
L 446.085 197.826126 
" style="fill:none;stroke:#fde725;stroke-linecap:square;stroke-width:2;"/>
   </g>
   <g id="line2d_41">
    <path clip-path="url(#p897c0bfbea)" d="M 341.410485 291.944998 
L 343.503976 284.850142 
L 345.597466 277.761143 
L 347.690956 270.683844 
L 349.784446 263.624055 
L 351.877937 256.587538 
L 353.971427 249.579992 
L 356.064917 242.607049 
L 358.158408 235.674258 
L 360.251898 228.787089 
L 362.345388 221.950925 
L 364.438879 215.17107 
L 366.532369 208.452754 
L 368.625859 201.801142 
L 370.719349 195.221348 
L 372.81284 188.718456 
L 374.90633 182.297532 
L 376.99982 175.963651 
L 379.093311 169.721919 
L 381.186801 163.577494 
L 383.280291 157.535614 
L 385.373781 151.601613 
L 387.467272 145.780949 
L 389.560762 140.079219 
L 391.654252 134.502172 
L 393.747743 129.055725 
L 395.841233 123.745966 
L 397.934723 118.57916 
L 400.028214 113.561738 
L 402.121704 108.700296 
L 404.215194 104.001573 
L 406.308684 99.472433 
L 408.402175 95.119837 
L 410.495665 90.950811 
L 412.589155 86.97241 
L 414.682646 83.191672 
L 416.776136 79.615575 
L 418.869626 76.250988 
L 420.963116 73.104617 
L 423.056607 70.182955 
L 425.150097 67.492225 
L 427.243587 65.038326 
L 429.337078 62.826784 
L 431.430568 60.862698 
L 433.524058 59.15069 
L 435.617549 57.694866 
L 437.711039 56.498771 
L 439.804529 55.565357 
L 441.898019 54.896949 
L 443.99151 54.495228 
L 446.085 54.361208 
" style="fill:none;stroke:#fde725;stroke-linecap:square;stroke-width:2;"/>
   </g>
   <g id="line2d_42">
    <path clip-path="url(#p897c0bfbea)" d="M 0 0 
" style="fill:none;stroke:#fde725;stroke-linecap:square;stroke-width:2;"/>
   </g>
   <g id="patch_3">
    <path d="M 49.61 291.945 
L 49.61 14.76 
" style="fill:none;stroke:#000000;stroke-linecap:square;stroke-linejoin:miter;stroke-width:0.8;"/>
   </g>
   <g id="patch_4">
    <path d="M 446.085 291.945 
L 446.085 14.76 
" style="fill:none;stroke:#000000;stroke-linecap:square;stroke-linejoin:miter;stroke-width:0.8;"/>
   </g>
   <g id="patch_5">
    <path d="M 49.61 291.945 
L 446.085 291.945 
" style="fill:none;stroke:#000000;stroke-linecap:square;stroke-linejoin:miter;stroke-width:0.8;"/>
   </g>
   <g id="patch_6">
    <path d="M 49.61 14.76 
L 446.085 14.76 
" style="fill:none;stroke:#000000;stroke-linecap:square;stroke-linejoin:miter;stroke-width:0.8;"/>
   </g>
   <g id="legend_1">
    <g id="patch_7">
     <path d="M 56.61 66.794375 
L 134.90375 66.794375 
Q 136.90375 66.794375 136.90375 64.794375 
L 136.90375 21.76 
Q 136.90375 19.76 134.90375 19.76 
L 56.61 19.76 
Q 54.61 19.76 54.61 21.76 
L 54.61 64.794375 
Q 54.61 66.794375 56.61 66.794375 
z
" style="fill:#ffffff;opacity:0.8;stroke:#cccccc;stroke-linejoin:miter;"/>
    </g>
    <g id="line2d_43">
     <path d="M 58.61 27.858437 
L 78.61 27.858437 
" style="fill:none;stroke:#440154;stroke-linecap:square;stroke-width:2;"/>
    </g>
    <g id="line2d_44"/>
    <g id="text_13">
     <!-- T = 200 -->
     <defs>
      <path d="M -0.296875 72.90625 
L 61.375 72.90625 
L 61.375 64.59375 
L 35.5 64.59375 
L 35.5 0 
L 25.59375 0 
L 25.59375 64.59375 
L -0.296875 64.59375 
z
" id="DejaVuSans-54"/>
      <path d="M 10.59375 45.40625 
L 73.1875 45.40625 
L 73.1875 37.203125 
L 10.59375 37.203125 
z
M 10.59375 25.484375 
L 73.1875 25.484375 
L 73.1875 17.1875 
L 10.59375 17.1875 
z
" id="DejaVuSans-3d"/>
     </defs>
     <g transform="translate(86.61 31.358437)scale(0.1 -0.1)">
      <use xlink:href="#DejaVuSans-54"/>
      <use x="61.083984" xlink:href="#DejaVuSans-20"/>
      <use x="92.871094" xlink:href="#DejaVuSans-3d"/>
      <use x="176.660156" xlink:href="#DejaVuSans-20"/>
      <use x="208.447266" xlink:href="#DejaVuSans-32"/>
      <use x="272.070312" xlink:href="#DejaVuSans-30"/>
      <use x="335.693359" xlink:href="#DejaVuSans-30"/>
     </g>
    </g>
    <g id="line2d_45">
     <path d="M 58.61 42.536563 
L 78.61 42.536563 
" style="fill:none;stroke:#21918c;stroke-linecap:square;stroke-width:2;"/>
    </g>
    <g id="line2d_46"/>
    <g id="text_14">
     <!-- T = 800 -->
     <defs>
      <path d="M 31.78125 34.625 
Q 24.75 34.625 20.71875 30.859375 
Q 16.703125 27.09375 16.703125 20.515625 
Q 16.703125 13.921875 20.71875 10.15625 
Q 24.75 6.390625 31.78125 6.390625 
Q 38.8125 6.390625 42.859375 10.171875 
Q 46.921875 13.96875 46.921875 20.515625 
Q 46.921875 27.09375 42.890625 30.859375 
Q 38.875 34.625 31.78125 34.625 
z
M 21.921875 38.8125 
Q 15.578125 40.375 12.03125 44.71875 
Q 8.5 49.078125 8.5 55.328125 
Q 8.5 64.0625 14.71875 69.140625 
Q 20.953125 74.21875 31.78125 74.21875 
Q 42.671875 74.21875 48.875 69.140625 
Q 55.078125 64.0625 55.078125 55.328125 
Q 55.078125 49.078125 51.53125 44.71875 
Q 48 40.375 41.703125 38.8125 
Q 48.828125 37.15625 52.796875 32.3125 
Q 56.78125 27.484375 56.78125 20.515625 
Q 56.78125 9.90625 50.3125 4.234375 
Q 43.84375 -1.421875 31.78125 -1.421875 
Q 19.734375 -1.421875 13.25 4.234375 
Q 6.78125 9.90625 6.78125 20.515625 
Q 6.78125 27.484375 10.78125 32.3125 
Q 14.796875 37.15625 21.921875 38.8125 
z
M 18.3125 54.390625 
Q 18.3125 48.734375 21.84375 45.5625 
Q 25.390625 42.390625 31.78125 42.390625 
Q 38.140625 42.390625 41.71875 45.5625 
Q 45.3125 48.734375 45.3125 54.390625 
Q 45.3125 60.0625 41.71875 63.234375 
Q 38.140625 66.40625 31.78125 66.40625 
Q 25.390625 66.40625 21.84375 63.234375 
Q 18.3125 60.0625 18.3125 54.390625 
z
" id="DejaVuSans-38"/>
     </defs>
     <g transform="translate(86.61 46.036563)scale(0.1 -0.1)">
      <use xlink:href="#DejaVuSans-54"/>
      <use x="61.083984" xlink:href="#DejaVuSans-20"/>
      <use x="92.871094" xlink:href="#DejaVuSans-3d"/>
      <use x="176.660156" xlink:href="#DejaVuSans-20"/>
      <use x="208.447266" xlink:href="#DejaVuSans-38"/>
      <use x="272.070312" xlink:href="#DejaVuSans-30"/>
      <use x="335.693359" xlink:href="#DejaVuSans-30"/>
     </g>
    </g>
    <g id="line2d_47">
     <path d="M 58.61 57.214687 
L 78.61 57.214687 
" style="fill:none;stroke:#fde725;stroke-linecap:square;stroke-width:2;"/>
    </g>
    <g id="line2d_48"/>
    <g id="text_15">
     <!-- T = 1400 -->
     <g transform="translate(86.61 60.714687)scale(0.1 -0.1)">
      <use xlink:href="#DejaVuSans-54"/>
      <use x="61.083984" xlink:href="#DejaVuSans-20"/>
      <use x="92.871094" xlink:href="#DejaVuSans-3d"/>
      <use x="176.660156" xlink:href="#DejaVuSans-20"/>
      <use x="208.447266" xlink:href="#DejaVuSans-31"/>
      <use x="272.070312" xlink:href="#DejaVuSans-34"/>
      <use x="335.693359" xlink:href="#DejaVuSans-30"/>
      <use x="399.316406" xlink:href="#DejaVuSans-30"/>
     </g>
    </g>
   </g>
  </g>
 </g>
 <defs>
  <clipPath id="p897c0bfbea">
   <rect height="277.185" width="396.475" x="49.61" y="14.76"/>
  </clipPath>
 </defs>
</svg>
